681
  -1   -2     53.067     17.202      6.919 4
   0  369     55.306     13.545     11.038 4
   2   20     58.474      9.332     15.156 4
   7    3     45.691     20.251     -3.158 4
  -1   -2     55.632     18.058      7.088 4
   5    4     56.122     11.190     13.304 4
  -1   -2     54.991      6.864      3.955 4
   1   12     51.513     10.901      4.457 4
 328   -2     57.798      5.004      0.688 4
  71   10     46.287     19.288      0.615 4
  15    7     57.924      7.051     11.052 4
  -1   11     53.296     19.520      8.700 4
  47   44     55.562     18.348      7.970 4
   6    6     43.031     28.217     -2.374 4
  -1   59     35.796     32.017      0.721 4
  16   24     43.619     15.447     -4.133 4
   8   25     47.300     17.129     -2.395 4
  -1   -2     53.693     10.313      7.812 4
  -1   13     44.270     24.807     -2.106 4
  14   42     54.779      9.060     10.343 4
  20   -2     47.562     10.566      1.857 4
  22   27     44.537     22.080     -1.413 4
  -1    8     40.173     22.873     -4.253 4
   3   28     50.223     14.702     -3.301 4
  -1   14     38.222     30.802      7.604 4
  -1   38     53.866     19.445     15.196 4
  52  650     32.212     19.863     -8.400 4
  -1  400     50.692     21.698      3.040 4
  23  645     52.778     10.799      2.377 4
 297   26     26.526     36.133      0.127 4
  -1   -2     24.925     18.752      0.851 4
  65  252     46.912     10.784      4.114 4
  24   29     43.544     23.853     -4.449 4
 355   36     22.483     32.025      0.520 4
 151   46     45.891     30.420     -1.469 4
  57   21     36.195     27.908     -6.551 4
  35   34     46.754     26.971      6.269 4
  56  652     43.038     22.240     -2.500 4
  -1   -2     56.103     10.702     20.339 4
  31  120     58.250     14.798     11.656 4
  33  647     40.080     20.979      4.672 4
 490   50     49.801     28.406      6.449 4
 160   83     62.408     12.898      7.287 4
  93   -2     32.011     35.664     11.571 4
  34   39     23.349     26.459      0.935 4
  -1   35     34.777     28.536     -1.502 4
  27   -2     35.040     25.943     -4.612 4
  26  646     53.248      6.248     -0.518 4
  40   -2     45.073     26.652      8.774 4
 165   54     27.416     15.950      1.109 4
  66  321     30.318     38.214      2.292 4
  42  251     35.352     32.323      9.274 4
  -1   -2     31.027     35.565     18.242 4
 132   37     48.256      0.545      2.914 4
  60   69     29.424     29.080      1.941 4
  67   71     28.037     32.763      5.215 4
  -1   -2     55.731     12.732     10.117 4
  -1   47     34.895     32.073      8.948 4
  17   41     58.393      0.260     11.160 4
  -1   -2     48.178      8.406      0.375 4
  -1   -2     32.636     35.512     19.027 4
  59  105     40.422     17.862      0.644 4
  87   76     58.966     15.965     11.332 4
  -1   43     45.535     12.980      6.078 4
 101   72     40.639     21.147      5.723 4
  46   98     41.100     24.403     24.366 4
 306   18     51.290     26.725      0.437 4
  -1   -2     49.946     -3.700     10.947 4
  85  399     38.003     28.055      3.791 4
  -1  273     38.584      8.042      4.558 4
  74   94     40.522     10.005      1.618 4
  -1   -2     47.375     23.915     25.879 4
  -1   65     52.378     26.553     -2.039 4
  -1   75     40.961     21.230     24.895 4
  -1   68     41.894     13.835     -4.401 4
 331  128     54.371     24.078     10.146 4
  43   73     32.076     11.400      2.388 4
  89   48     46.033      6.883      2.679 4
  80   30     47.259     11.203      1.263 4
  86  654     48.020     21.232      1.412 4
  44   45     44.695     12.996     -1.487 4
  72   92     37.137     31.925      3.654 4
  61   55     36.238     21.827     15.149 4
 120   74     49.047      5.048     12.115 4
  -1   32     50.516     17.560     17.019 4
  92   22     56.616     16.113      8.343 4
  82  157     45.483      2.946     -4.298 4
  63   70     39.915     24.974      3.217 4
  -1   -2     49.681     10.316     21.271 4
  88  161     43.475      0.272      6.898 4
  51   77     36.517     25.603      6.312 4
  -1   -2     36.501     26.053     15.736 4
 100  102     44.603     37.463     -1.818 4
 171  100     52.588     26.516     -4.347 4
  53  651     25.096     23.948     -3.976 4
 125  158     36.425     25.963      3.247 4
  94  129     41.672      6.207      4.235 4
 127  136     43.470     33.777      5.094 4
  -1   -2     41.216     -0.284      6.519 4
 414  132     28.416     37.045     -1.737 4
  32   -2     37.557     23.186     15.320 4
 157   81     27.296     23.717      9.218 4
 128  153     53.871     27.945      9.904 4
 124  414     35.584     23.697      6.406 4
  90   40     51.838     15.192     17.326 4
 106  131     24.661     21.538     -2.057 4
  -1  156     27.602      5.115     -0.637 4
  69  226     39.078     22.768      4.816 4
  37   80     34.371     15.444      6.283 4
 185  218     39.163     40.049      4.898 4
  48  648     44.097     17.008      4.482 4
  76   99     43.242     32.368      4.134 4
  81  139     34.887     17.036      6.268 4
 139   15     34.313     34.267      7.035 4
  -1  192     45.810      2.184      0.390 4
 449  123     22.049     30.438     -2.892 4
  -1   -2     39.791     18.127     -3.554 4
  36  116     38.551     26.755     10.935 4
  -1  201     44.804      2.098      7.633 4
  -1  294     47.710     -0.554      1.852 4
  -1  127     19.621     26.792     -5.415 4
  99   87     55.908     22.832     14.790 4
  -1   -2     49.744      4.640     10.602 4
 137  112     29.107     -1.879      8.167 4
 201  220     36.612     19.544      9.299 4
 102  655     44.597     27.540      8.778 4
 228  181     22.769      3.895     -0.954 4
 148  104     25.398     17.172     -0.482 4
  83  108     33.550     18.468      3.603 4
 181  144     40.002      5.082      0.932 4
 105  657     37.549      8.708      7.349 4
 104  656     39.187     25.396      5.774 4
 136  160     46.245     34.056     -0.216 4
 107  658     58.634     31.367      9.028 4
 188  122     33.300     30.396     12.245 4
 179  667     38.192      2.593      1.455 4
  -1   -2     26.847     -4.865      6.649 4
 141  121     24.116     26.790     -5.443 4
 138  145     32.311     20.634      0.648 4
  -1  119     29.190      1.966      7.050 4
 122   84     35.136     24.685      3.182 4
  95  173     39.922      3.692      3.693 4
 131  664     46.428      0.277      1.248 4
  -1  159     40.732     16.401     21.294 4
  -1   -2     30.664     20.027      6.833 4
 152   85     31.406     18.289     10.108 4
  -1   -2     45.330     17.244     12.708 4
  75  137     43.571     22.518     14.031 4
 229  109     36.759     38.844      6.956 4
  -1   60     37.894     17.946     -1.288 4
  -1  292     47.321     -0.152      5.502 4
 114  413     62.075     32.751     10.813 4
 116  115     31.220     21.145      1.456 4
 159  103     27.024     24.600     -0.365 4
 133  174     45.530      1.493      9.045 4
 130  114     35.847     14.060      5.334 4
  -1  162     43.988      6.032      9.897 4
 153  665     33.608     18.500     -0.874 4
 184  668     38.806     35.942     15.863 4
 273   -2     44.281      5.204      7.723 4
  -1  254     29.004     28.342     11.737 4
 170  101     23.259     22.643     -6.642 4
  -1  124     25.663     38.765     -0.874 4
 175   86     32.767     12.059     12.552 4
 167  666     45.691     -2.297     10.216 4
 191  188     44.625     -1.805      3.446 4
 154  168     64.135     17.478      5.280 4
 210  141     35.526      3.917      9.808 4
  91  125     35.944     -1.008     10.179 4
 173  215     36.245     12.446      6.801 4
  -1  178     33.414     11.120      3.544 4
 177  167     36.827     15.859      7.852 4
 203  199     62.949     19.912     14.454 4
 140  179     46.600     -0.812      6.163 4
 161  190     39.154      6.593      0.587 4
  -1  154     28.088     19.721      7.386 4
  -1   -2     47.416     -0.269     12.936 4
  -1   -2     48.116      6.615     10.444 4
  -1  247     18.903     30.542      9.198 4
 224   -2     33.224     -3.184      5.785 4
  -1  440     55.326     28.603      0.033 4
 200  166     34.273     13.546      6.382 4
 117  133     22.210     27.500     -6.836 4
  -1   -2     43.141     10.102     20.642 4
 221  232     24.461     18.005      1.702 4
  -1  134     53.595      5.228      8.910 4
  -1   -2     47.171     13.629     13.355 4
 150   -2     33.775      0.603      8.549 4
  -1   -2     54.853      9.086     -4.659 4
 193  169     25.773     16.714     -3.667 4
  84  130     28.681     30.652      8.554 4
  -1  186     23.969     24.138     10.963 4
 300  289     33.193      4.170     12.794 4
 204  209     20.638      8.701     10.451 4
  -1   -2     35.164     39.425      9.069 4
  -1  107     33.586     21.814      4.379 4
  -1   -2     33.324     -2.146     11.787 4
 222  673     37.702      4.331      9.386 4
  -1  182     54.827     28.367      8.880 4
 199  692     34.501      7.604      9.827 4
 168  236     21.977     14.281      0.361 4
 316  230     27.571     20.507      3.262 4
 134  106     44.011     37.874      5.095 4
 231  151     52.826     23.314     13.803 4
 330  191     53.074     35.680      7.716 4
 218   78     33.280     14.375      0.191 4
 428  214     36.623     39.358      7.147 4
 119  660     36.171     22.268     16.712 4
  -1   -2     37.359     16.979     17.610 4
 186  183     27.375     20.383      1.603 4
 509  212     43.259     -6.038      3.949 4
  -1  213     21.036     21.903     15.473 4
 166  219     42.764     -3.385      8.222 4
 197  672     34.819     -3.163     13.858 4
 220  189     26.989     26.131      7.859 4
 223  225     58.047     24.135     12.152 4
 146  425     29.897     24.286     -1.753 4
 216  221     25.436     13.133     -2.332 4
 213  172     25.344     25.069     -0.197 4
  -1   -2     33.246      4.922      8.968 4
 143  203     22.639     30.576     -6.327 4
  -1   -2     43.217     36.281     19.606 4
 234  248     42.956      5.427      9.016 4
  -1  198     32.280      7.363     16.553 4
  -1  244     34.487     14.960      8.746 4
 126  663     27.229     35.831     11.177 4
 198  217     29.566      8.741      5.057 4
  -1   -2     31.188      3.665      7.991 4
  -1   -2     40.029     38.502      3.214 4
 178  210     53.992     26.719      4.823 4
  -1  227     22.877     13.504      4.700 4
 144  211     32.831     17.726      8.991 4
 275  204     21.345     30.805     -2.387 4
  -1   -2     38.659     27.107     -0.471 4
 211  239     62.907     18.576     13.558 4
 248  674     41.740     -4.621      8.544 4
 212  237     55.771     28.437      8.059 4
 232  195     24.736     25.317      1.434 4
  -1  193     34.663     17.847     23.728 4
 183  117     27.238      6.223     -3.368 4
 219   58     36.249     -2.498    -10.852 4
 233  184     29.177     23.556     11.143 4
 432  197     27.664     39.559     10.560 4
 230  206     28.267     13.891      8.710 4
  -1   -2     37.857      0.737      5.940 4
  -1  223     24.901     29.881     16.183 4
  -1   -2     53.128     22.677     26.698 4
  -1   -2     62.455     23.531     10.845 4
  -1  245     29.884      9.988     21.535 4
 155  146     42.873     17.423     11.607 4
 206  185     61.611     19.527     15.583 4
 190  113     52.130     22.735      9.232 4
 263  256     41.174     -1.070     10.576 4
 227  260     59.628     26.820     10.452 4
 192  255     28.153      9.852      5.728 4
 195  670     35.527     13.865      8.596 4
  -1   -2     37.057      2.622     22.818 4
 253  257     27.042     10.930     13.463 4
 286  170     37.233     15.372     10.459 4
  -1   -2     23.745     16.558      7.257 4
 242   -2     36.918      6.341     21.778 4
 245  288     61.631     29.282      1.054 4
  -1   -2     55.459     32.155     21.372 4
  -1   -2     57.597     33.044      6.584 4
  -1   -2     30.401      6.982     29.401 4
 235  266     29.179      6.659     17.384 4
 276  322     29.360     -1.545     14.499 4
  -1   -2     34.902     22.183    -19.503 4
  -1   -2     61.331     27.164      2.844 4
  -1   -2     21.719      4.931      6.524 4
 291  278     37.262     -5.983      9.434 4
 262  267     19.732     25.887     15.811 4
 202  240     48.367     37.212      5.368 4
 279  299     29.931     -0.440     14.799 4
  -1   -2     52.906     11.274      7.277 4
 251  187     25.236     11.020      0.691 4
 254   -2     29.557      3.736     14.683 4
 272  283     25.434      6.334      8.065 4
  -1  253     24.996      8.821      8.141 4
 237  258     23.272     33.437      8.426 4
  -1  271     53.066     37.082     21.879 4
 240  282     24.473     27.572      6.869 4
  -1   -2     40.345     -4.148      7.884 4
  -1   -2     52.628      6.630      9.208 4
  -1   -2     12.145     28.309      2.255 4
 274   -2     25.561     36.418      4.686 4
  -1  269     26.352     16.976      5.436 4
  -1  280     12.944      3.021     16.137 4
  -1  281     59.201     31.311      3.737 4
 313  298     21.198      1.234      7.233 4
 241   -2     54.699     -5.106     -0.523 4
  -1   -2     49.537     18.381     -2.596 4
 280  286     62.942     29.477     11.915 4
  -1   -2     38.998     11.495     21.815 4
 296  293     13.909      4.953     11.085 4
 246  693     43.874      9.336      4.152 4
 196  671     44.014     -1.815      6.886 4
 281  296     19.653     17.263      1.317 4
 268  272     27.131      8.653     13.001 4
 243   -2     22.828     10.042      5.566 4
  -1   -2     51.891     -8.171     -4.319 4
  -1   -2     37.129     24.228     11.737 4
  -1  302     15.758      0.654     16.539 4
  -1  457     22.558     34.519      1.941 4
  -1  314     21.079      0.114      3.854 4
  -1   -2     58.198     30.231     13.755 4
 443  421     53.045     24.248     -3.980 4
 182  312     43.075     37.076      5.666 4
 247  437     24.473     32.104      9.714 4
  -1   -2     43.003     27.224      0.382 4
 271   -2     18.252      4.059      3.224 4
  -1  304     30.643     -4.965      9.984 4
 282  303     26.495      4.490     12.540 4
 284   -2     30.449     12.768     15.338 4
 288  317     48.285     23.545      4.876 4
  -1   -2     28.409     34.643      8.639 4
  -1   -2     47.701      4.848      0.710 4
 304  319     19.745      8.578      8.247 4
  -1   -2     28.888     -3.552      7.907 4
 255  355     24.246      2.222      4.617 4
  -1   -2     49.189      6.885      0.069 4
  -1   -2     41.222     -5.302     10.582 4
  -1   -2     17.691      3.157      9.243 4
  -1   -2     50.115     12.216     23.173 4
 289  676     47.942     21.306      5.859 4
  -1   -2     37.759     34.367     -0.239 4
 303   -2     24.944     13.502     13.807 4
 426   -2     46.183     37.000      0.102 4
  -1   -2     31.260     32.878     10.382 4
  -1   -2     39.186      7.483     29.542 4
 290  313     19.698      9.858      3.384 4
  -1   -2     33.923      9.458      5.473 4
  -1  337     14.674     27.936     14.003 4
  -1   -2     37.233     -6.323    -19.964 4
  -1   -2     20.287      9.778      8.352 4
  -1  335     -3.051     22.923      1.481 4
  -1  324     36.415     23.449      6.460 4
  -1   -2     30.930     35.099    -10.712 4
  -1  409     34.834     17.787      3.771 4
  -1   -2     31.019      9.129     13.878 4
  -1   -2     40.963     -4.657    -15.317 4
  -1   -2     33.197     10.211    -20.357 4
  -1   -2     43.512     -0.679      3.160 4
  -1   -2     35.155     -1.842     10.482 4
  -1   -2     50.674     -2.467      3.965 4
  -1   -2     30.489     -1.576      7.361 4
  -1   -2     51.315      9.668      6.217 4
  -1   -2     52.830     -3.515      9.493 4
  64  362     35.047     40.671      3.592 4
  -1   -2     20.080     27.256     22.016 4
  -1   -2     34.762      0.385    -10.257 4
  -1   -2     48.466      0.585     -2.479 4
  -1   -2     48.599     -8.293      0.584 4
  78   -2     33.121     30.123      6.195 4
 315  343     33.627     -5.331      4.606 4
  -1   -2     41.736     14.529     14.534 4
  -1   -2     49.638     24.671    -13.787 4
  -1   -2     31.709     39.210      1.995 4
  -1   -2     42.030     -1.362      8.213 4
  -1   -2     55.396     -4.530      0.617 4
  -1   -2     40.252     20.608     17.315 4
 338  338     44.063      2.868     30.989 4
  -1   -2     30.984      0.709     10.773 4
  -1   -2     42.381     16.038    -12.861 4
  -1   -2     45.722     33.977     -8.219 4
  -1   -2     43.902     35.528     13.416 4
  -1   -2     32.868     11.120     28.423 4
  -1   -2     51.088     -4.569     10.089 4
  -1   -2     31.909     13.991      9.029 4
 351  359     22.115     -0.160    -14.187 4
 348  367     51.139     41.081     -5.129 4
  -1   -2     36.664     -7.422    -13.559 4
  -1   -2     42.089      9.302    -12.744 4
 162   -2     52.905     27.105      4.533 4
  -1   -2     52.541      8.507     24.890 4
  -1   -2     42.869    -10.620     -2.903 4
  -1   -2     31.504    -10.168     -3.211 4
  -1   -2     48.963     12.275      8.729 4
  -1   -2     42.224     24.762    -24.721 4
  -1   -2     23.889     37.489      4.426 4
  -1   -2     52.936     15.860     13.468 4
  -1   -2     57.839      4.742      3.139 4
  -1   -2     14.924     36.850      1.145 4
  -1   -2     68.217     13.857    -25.275 4
  -1   -2     33.036     -7.604     -3.482 4
  -1   -2     58.877     28.702      4.292 4
  -1   -2     59.567      3.512     -0.405 4
  -1   -2     41.368     36.667     22.742 4
  -1   -2     58.814      0.987    -10.202 4
  -1   -2     60.586     -5.589     -2.000 4
  -1   -2     20.968     17.982      4.968 4
  -1   -2     57.108     -6.308    -12.190 4
  -1   -2      9.542     22.304     -8.172 4
  -1   -2     55.323     -9.389     -7.432 4
 403  447     23.593     -3.933    -25.749 4
  -1  406     34.363     40.028     -1.003 4
 387  391     53.541     39.449     19.193 4
  -1   -2     64.574     -1.494     -0.702 4
 391  171     47.666     27.091     11.454 4
 409  680     51.046     21.999      8.193 4
 412  398     49.785     22.911      5.348 4
 451  423     28.465     35.388      2.397 4
 392  403     33.190     33.832     -9.254 4
 386    9     54.441     16.052     -5.352 4
 456   -2     36.050     38.529     10.122 4
  -1   -2     52.239     28.978     -1.578 4
  -1  401     42.280     25.833      7.285 4
 394  404     60.177     41.366      2.190 4
  68   -2     41.431     40.742    -13.930 4
 389  430     51.970     27.424     -2.155 4
  -1  392     42.246     32.320     -1.769 4
 458  687     46.413     30.063      4.675 4
  -1   -2     47.682     42.685    -10.464 4
  30  405     45.021     19.090      5.120 4
 407  439     39.428     36.059    -10.543 4
 430  452     22.034     39.646      3.701 4
  19   52     39.090     21.133      0.269 4
 405  350     34.487     33.590     10.085 4
  -1   -2     24.429     21.630    -18.002 4
 439  433     59.051     15.889     -5.222 4
 109  140     49.337     25.255      8.775 4
 431   82     37.693     31.174      2.908 4
 422  436     33.415     38.409     13.040 4
 429  683     64.703      3.802      8.878 4
  -1   49     51.028     24.178     12.680 4
  -1  419     68.690     11.627      0.769 4
  -1  426     54.891     -3.638      5.297 4
 436  428     46.466     29.910     19.378 4
 209  420     15.160     33.178      8.286 4
  -1  408     27.876     37.109      3.339 4
  -1   -2     36.184     22.012      6.402 4
  -1  410     36.786     40.875     -6.665 4
 419  424     59.515     -7.175      6.767 4
  -1   -2     52.277     11.996      3.906 4
  -1   -2     44.836     27.225     -1.515 4
  -1   -2     32.479     23.763     -6.075 4
  -1   -2     35.267      6.439     29.210 4
 446  448     54.070     26.707     -3.325 4
 411   -2     29.441     32.070    -15.699 4
 142  434     48.546      4.193     16.489 4
 450  685     55.360     -2.026      3.960 4
 437  445     50.846     28.647     11.794 4
  54  443     57.630     21.701     -1.528 4
  58  653     31.104     27.223     -5.601 4
  -1   -2     23.208     21.910    -11.087 4
  -1   -2     30.455      7.598     16.271 4
  -1  118     26.723     26.207     -2.341 4
  -1   -2     51.570     37.750     12.944 4
  -1   -2     37.665     37.841     26.962 4
  -1   -2     41.739      7.969     30.850 4
  -1  429     33.299     20.447      7.424 4
  -1   -2     48.188     36.364     10.639 4
 417  422     29.916     31.395     -0.918 4
 460   -2     21.614     22.871      3.157 4
 448  454     13.862     28.486      2.939 4
  -1   -2     50.400     28.593     12.273 4
  -1  449     48.655     28.514      6.639 4
 467   -2     41.024     40.174      1.759 4
  -1   -2     36.592     14.071     20.228 4
 454  451     64.797     19.561     15.171 4
  -1   -2     31.888     32.525     -1.732 4
  -1   -2     30.339     38.414    -12.494 4
  -1   -2     12.779     24.841     10.132 4
  -1   -2     38.592      5.935     10.874 4
  -1   -2     50.152     30.410     -1.563 4
 462  432     56.298     18.725      2.650 4
  -1   -2     28.010      0.878     25.002 4
 473  688     39.617     39.793     -4.494 4
  -1   -2     40.217     27.769      9.779 4
 164  468     52.386     31.311      3.311 4
 471  465     51.431     33.984     -3.158 4
 459   -2     16.179     22.553      2.826 4
  -1  224     50.287     30.271      7.973 4
 423  682     48.849     33.915     17.380 4
 496  484     46.769     37.428     -2.800 4
 479  478     48.511     37.714      6.131 4
  -1   -2     30.634     27.836     14.873 4
  -1   -2     48.147     19.196      1.126 4
  -1   -2     47.170     11.425      1.070 4
 492  446     50.177     32.771      4.570 4
  -1   -2     20.437     41.055      2.179 4
  -1   -2     31.483     39.206     12.818 4
 475  483     39.782     39.172      0.537 4
  -1   -2     54.129     32.237      6.998 4
 478  473     65.831     21.030     13.828 4
 452  686     19.570     22.883     -2.087 4
  -1   -2     37.993     19.896     28.117 4
 489   -2      8.354      8.440      8.188 4
  -1   -2     43.288     10.264      9.115 4
  -1   -2     28.146     23.661      8.148 4
  -1   -2     11.020     23.147     -2.301 4
 487  690     54.083     29.336     -4.473 4
 483   -2     17.685     13.710      0.131 4
  -1   -2     19.976     38.952     10.402 4
  -1   -2     43.678     37.884    -13.207 4
  -1   -2     43.572      5.925    -10.396 4
 360  494      5.834     12.509      3.147 4
 501  518     55.928     30.176      1.738 4
  -1   -2     26.960     20.303     13.539 4
  -1   -2     35.933      1.540     28.965 4
  -1   -2     40.353     26.404     14.323 4
 481  689     52.664     36.170      5.644 4
 488  482     51.268     35.355      3.750 4
  -1   -2     35.205     33.431      0.389 4
  -1  297     16.916     12.413      3.120 4
  -1   -2     55.715      5.906     -3.727 4
  -1   -2     44.849     23.468      9.862 4
  -1   -2     52.192     16.418     18.365 4
  -1  475     51.182     33.537     -5.371 4
  -1  507     48.181     39.891      2.525 4
  -1   -2     45.154     32.244      1.651 4
  -1   -2     41.190      5.035     31.224 4
 500  497     56.584     36.783     -0.101 4
 505  486     58.134     35.502     -6.868 4
  -1   -2     43.340     31.118      4.388 4
  -1   -2     30.127     26.290     -6.334 4
  -1   -2     34.737     -3.534    -15.377 4
  -1   -2     33.118     -4.082    -23.206 4
  -1   -2     29.492      3.914     -4.312 4
 513   -2     22.082     34.799     16.453 4
  -1   -2     33.344     31.698     11.761 4
 531   -2     34.256     22.754    -25.878 4
  -1   -2     62.353     24.659     19.930 4
  -1   -2     27.682     42.582    -10.843 4
  -1   -2     11.734     -2.779    -19.747 4
  -1   -2     29.393      3.844     24.590 4
  -1   -2     72.208     11.297     -4.334 4
  -1   -2     28.559     -8.099      0.930 4
  -1   -2     45.192      2.780      6.344 4
  -1  516      7.687      9.710     -1.836 4
  -1   -2     45.420     34.025      7.244 4
  -1  537     59.727     37.656      5.853 4
  -1   -2     34.860     23.813     14.939 4
  -1   -2     43.751     31.057     -0.786 4
  -1   -2     39.569      1.228     15.111 4
  -1   -2     20.956     36.737     12.878 4
 293  309     25.510     12.784      7.841 4
 326  530     -2.503     18.965      8.565 4
  -1   -2     57.331     34.520      0.419 4
  -1   -2     32.713      8.654     13.599 4
  -1   -2     32.893     32.955     25.559 4
  -1   -2     30.065      0.635      1.605 4
  -1   -2     18.398     19.646     31.099 4
  -1   -2     27.079     29.424     22.137 4
  -1   51     52.539      1.872      9.015 4
  -1   -2     37.650      2.459    -26.204 4
  -1   -2     45.388      0.376     -9.251 4
  -1   -2     48.022    -10.505    -22.821 4
  -1   -2     62.100     12.082      3.157 4
 560  548     62.697     39.539     -3.547 4
  -1   -2     34.611     36.654     22.258 4
  -1   -2     41.140     34.127     27.249 4
  -1   -2     36.979      4.275     -5.176 4
  -1   -2     21.168     17.338     29.914 4
  -1   -2     42.708      1.368    -11.614 4
 252  270     59.871     30.992     -0.152 4
 579  602     56.040     11.937      3.642 4
  -1   -2     29.718      5.314      2.576 4
 516   -2     31.122     38.324    -20.143 4
  -1   -2     34.930     41.072    -10.803 4
 590  532      5.572     35.344     28.779 4
 295   -2     16.272     28.642      6.355 4
  -1   -2     26.288     38.991    -12.122 4
  -1   -2     21.580     27.701     29.230 4
  -1   -2     47.044     35.652     -3.059 4
  -1   -2     38.985     18.921     19.464 4
  -1   -2     44.777      1.590     10.375 4
  -1   -2     36.514    -12.819    -10.650 4
  -1   -2     36.679     11.941     30.461 4
  -1   -2     29.248     23.177     30.195 4
  -1   -2     24.698      8.654    -25.403 4
  -1   -2     47.890     35.485    -15.748 4
  -1   -2     24.033     16.923      0.269 4
  -1   -2     33.544     38.154      0.188 4
 604  519     25.991     26.785     26.424 4
  -1  560     59.693     35.060    -20.803 4
  -1   -2     29.564      5.582    -10.377 4
  -1   -2     20.921      3.859      6.918 4
  -1   -2     23.451      3.367     22.874 4
  -1   -2     50.810     18.055    -19.572 4
  -1   -2     37.146      3.329     22.739 4
  -1   -2     41.437     22.158      5.497 4
 586  556     17.328     32.366      7.165 4
  -1   -2     27.852     23.429      6.424 4
  -1   -2     27.871     36.819     19.484 4
  -1   -2     32.093     11.387     29.890 4
  -1   -2     46.337     27.402    -23.217 4
 536   -2     23.467     33.392     22.090 4
  -1   -2     24.393     -9.700    -17.129 4
  -1   -2     21.537     28.169     25.280 4
  -1   -2     14.151     30.636    -12.023 4
  -1   -2     48.191     33.020    -21.364 4
  -1   -2     37.044     35.073     27.558 4
  -1   -2     54.648      3.867     -7.354 4
  -1   -2     27.825     35.271     16.901 4
 601  593     16.100     27.492     14.675 4
 567   -2     25.548     37.855    -20.115 4
  -1   -2     10.595     -4.385      6.813 4
  -1   -2     68.162     25.520    -15.924 4
 614  594     23.738     39.906     -1.580 4
  -1   -2     11.896     22.599    -15.840 4
  -1   -2      4.030     22.886     -4.194 4
  -1   -2     42.054     41.350    -21.763 4
  -1   -2     38.308     36.553    -21.170 4
  -1   -2     15.739     13.918     -4.120 4
  -1   -2     51.625     38.748    -22.489 4
  -1   -2     57.119      9.398    -10.912 4
  -1   -2     21.117     37.785     -1.430 4
  -1   -2     55.778     27.902     16.978 4
 607  611      7.974     -2.748      1.567 4
  -1   -2     37.482     14.791      9.488 4
  -1   -2     21.953     15.262     20.413 4
  -1   -2     33.955     37.842    -22.643 4
  -1   -2     52.930     -5.108     10.912 4
 581   -2     28.235     38.349    -22.123 4
 643  608     70.592     13.153     -3.823 4
  -1   -2     50.904     40.001     -7.858 4
  -1   -2     32.159      3.772     12.155 4
  -1   -2     40.965      4.566     -8.790 4
  -1   -2     26.411     36.767    -19.842 4
  -1   -2     22.800     30.827     16.835 4
  -1   -2     25.843     12.513     14.762 4
  -1   -2     18.405      4.336    -16.769 4
  -1   -2     19.169     21.134     20.570 4
  -1   -2     55.791     19.223     28.223 4
  -1   -2     55.610     40.480     -2.798 4
  -1   -2     14.453     33.731    -24.375 4
 639   -2     69.143     34.157     -2.674 4
  -1   -2     44.212     35.154     -5.475 4
  -1   -2     24.440      1.453     27.618 4
 641   -2     12.006     25.887    -24.562 4
 644  639     61.037     26.121     20.545 4
  -1   -2     34.537     39.922    -15.219 4
  -1   -2     71.688     14.136      2.332 4
  -1  630     66.036     36.384     -1.728 4
  -1   -2     59.572     -1.958    -13.018 4
 645  627     65.912     31.733    -15.434 4
  -1   -2     37.712     42.181    -16.242 4
  -1   -2      0.178      0.277     11.315 4
  -1   -2     -2.692     25.262     -7.742 4
 648  632      5.046     27.581     30.146 4
  -1   -2     10.984      8.227     -7.279 4
  -1   -2     71.056     16.347    -14.603 4
  -1   -2      5.763    -10.404     -9.733 4
  -1   -2     13.432      1.633     26.877 4
  -1   -2     19.085     11.804    -23.118 4
 657  641     -5.395      7.708     -0.711 4
  -1   -2     71.601     24.006    -10.784 4
  -1   -2     61.192     -3.775     13.834 4
  -1   -2      0.101      6.344    -21.217 4
 663   -2     16.018     39.068    -17.518 4
  -1   -2     69.923     10.437    -17.373 4
  18    1     48.352     18.913     -0.658 2
  10   -2     46.816     17.593      9.731 2
   9    0     49.194     14.646      3.226 2
 388  678     49.956     18.444      1.024 2
   4    2     54.895     14.061      8.499 2
 158   -2     52.381      7.137     13.877 2
  41   -2     44.616     21.484     -0.727 2
  49  649     45.740     11.819      4.055 2
  97   57     33.889     26.411     13.128 2
 123  662     54.998      3.442     13.438 2
  79   -2     31.354     29.557      1.542 2
 442  684     32.318     25.387      2.729 2
 121  661     45.515     14.382     12.592 2
 111  659     37.323     13.633     13.317 2
 156   -2     42.658     -5.934      6.488 2
  98   -2     50.026      0.029      3.482 2
 110   -2     29.301      2.564      4.237 2
 135   -2     37.447     24.166     10.730 2
 187  669     25.012     19.018      2.799 2
 176   -2     28.910      4.919     12.835 2
 250  675     35.580     11.385     11.533 2
 257   -2     23.840     22.518     15.541 2
 413  681     31.648     33.865     17.129 2
 294  677     43.549     15.046     19.762 2
 112  412     38.832     27.669      1.232 2
 395  679     28.352     18.641    -15.262 2
 418  463     27.494     35.665     -0.158 2
 455  438     36.550     39.195      1.615 2
 550  691     23.931     25.441     25.545 2
