667
   0    1     55.249     13.390     11.051
 228    7     51.512     10.665      4.478
  -1    2     58.450      9.285     15.171
   5   23     50.310     14.441     -3.314
  36  656     54.779     13.852      8.446
  14    5     56.090     11.116     13.329
   8   13     43.009     27.873     -2.343
   6    3     45.721     19.968     -3.033
 298   16     47.404     16.842     -2.369
  10  654     49.105     14.387      3.241
   3  653     46.815     17.532      9.662
  -1   -2     38.776     26.741     -0.640
  -1   -2     35.812     31.676      0.746
  -1   -2     52.837     10.960      7.065
 401   19     54.714      8.943     10.330
  29   10     57.898      6.976     11.044
  11   15     43.729     15.226     -4.105
  42   58     58.402      0.226     11.181
   2  652     48.381     18.567     -0.729
 330  416     39.085     20.870      0.354
  85   20     47.464     10.272      1.911
  -1   -2     43.082      7.722      1.224
  20   21     44.479     21.815     -1.361
  30   28     52.780     10.589      2.342
  65   32     43.525     23.634     -4.351
  -1   -2     24.360     36.752      8.306
  15   47     53.160      5.973     -0.527
  43   46     35.085     25.682     -4.558
  -1   -2     43.533     31.022     -1.187
  -1   -2     35.206     11.435      5.071
  38  413     45.038     18.924      5.208
  81   39     58.204     14.679     11.676
  95  100     37.593     23.097     15.296
  24   40     40.099     20.778      4.747
  -1   44     23.344     26.300      0.969
  59   36     46.772     26.785      6.292
  -1  117     38.591     26.726     10.928
  21  108     34.475     15.217      6.351
  -1   -2     50.502     17.551     16.895
  -1   -2     35.027     17.487      3.999
  22   48     45.043     26.484      8.783
  45  658     44.576     21.222     -0.616
  -1   51     35.456     32.177      9.282
  69   76     32.066     11.157      2.465
  32   80     44.705     12.826     -1.470
  -1   -2     36.204     23.304      6.856
  71   65     41.111     24.404     24.377
  28   12     55.502     18.140      7.936
  35  110     44.116     16.808      4.557
  51  659     45.640     11.626      4.087
  -1   -2     27.080     12.196     -0.043
  75   90     36.478     25.398      6.399
  41   26     32.156     19.735     -8.377
  72   94     25.115     23.786     -3.919
  55  442     57.639     21.592     -1.594
  -1   -2     41.944     32.377      4.764
 390   37     42.973     22.011     -2.420
  23   35     36.298     27.654     -6.515
  33  443     31.177     26.976     -5.655
  62   61     40.350     17.634      0.711
  48   54     29.407     28.873      1.950
 396   82     36.260     21.735     15.144
  -1   -2     34.619     24.942      0.619
  67   87     39.898     24.816      3.323
  -1  348     35.008     40.557      4.010
  34   31     46.816     10.520      4.121
  63   50     30.372     37.948      2.325
  60   55     28.034     32.622      5.194
 102  408     41.424     40.533    -13.808
  -1  107     39.093     22.588      4.959
  -1   -2     50.360     19.561     -2.830
  19    9     46.237     19.009      0.609
  58   81     37.168     31.731      3.708
  -1   -2     47.437      4.314     -3.445
 105   70     40.465      9.828      1.579
  99  147     43.559     22.516     14.039
 418  111     43.258     32.187      4.097
  -1   -2     51.082      4.789     20.405
  53  353     33.169     30.014      6.475
  80  662     31.342     29.308      1.611
  25   78     47.160     10.904      1.294
 107  112     34.952     16.836      6.312
  -1   86     45.478      2.777     -4.408
 157  128     33.590     18.198      3.617
  89  190     28.660     30.561      8.523
  50   68     37.970     27.904      3.894
  -1   79     47.984     21.002      1.531
  84   62     58.927     15.849     11.372
  93   89     43.414      0.047      6.900
  82   77     45.984      6.587      2.698
  -1  104     51.841     15.186     17.364
 308  168     35.986     -1.188     10.211
  47   85     56.528     15.922      8.348
 302   43     32.026     35.428     11.559
  -1   96     41.674      5.877      4.233
 161  141     39.900      3.463      3.692
  -1   -2     47.875      8.029     -2.895
  70  660     33.968     26.256     13.116
 151  667     49.801     -0.198      3.772
  -1  121     55.919     22.802     14.769
  94   92     44.556     37.225     -1.666
  64   64     40.616     20.967      5.832
  -1  125     44.568     27.414      8.736
  -1   -2     32.057     -1.966      6.023
  98  131     39.113     25.228      5.848
  68  130     37.573      8.407      7.311
  87  105     24.679     21.394     -2.014
 156  133     58.618     31.264      9.056
  -1   -2     41.148     -0.527      6.431
  91  420     49.299     25.222      8.855
 158  668     29.239      2.342      4.433
 121  665     37.294     13.572     13.361
 398  676     38.848     27.444      1.333
  -1   -2     31.980      2.198     14.552
  -1  151     62.068     32.673     10.871
  -1   -2     45.978      9.304     20.046
 128  152     31.205     20.951      1.572
  -1  182     22.241     27.368     -6.860
  -1   -2     27.909     34.911     10.541
 144  207     36.233     22.228     16.723
  92   83     49.060      4.953     12.111
 120  664     45.527     14.351     12.621
  88  140     35.178     24.436      3.242
  74  661     54.995      3.349     13.386
 236  103     35.524     23.486      6.436
 103   95     36.455     25.724      3.296
  -1  225     27.247     35.693     11.079
 119   97     43.480     33.630      5.094
  86  102     53.864     27.803      9.894
  -1   -2     48.865     -2.789      0.838
  -1  155     35.898     13.819      5.413
 147  142     46.251     -0.028      1.185
  -1   53     48.113      0.253      2.910
  -1  154     45.563      1.398      8.962
  -1  202     44.049     37.795      5.139
 172  669     37.442     24.012     10.723
 125  132     46.259     33.758     -0.180
 123  123     29.104     -2.165      8.162
 185  138     32.297     20.416      0.683
  61  113     34.411     34.130      6.887
 112  173     46.506     -1.011      6.195
 140  137     24.125     26.636     -5.465
  -1  439     48.561      4.198     16.543
 180  220     22.687     30.480     -6.153
 187  231     32.802     17.473      9.012
  -1   -2     28.417     27.277      9.090
 113  216     29.877     24.129     -1.652
  -1   -2     29.724     36.406     14.395
 117  127     25.393     17.038     -0.384
  -1   -2     40.777     -4.570      9.666
 106  187     33.820      0.371      8.590
  52   34     45.876     30.097     -1.506
  -1  145     31.373     18.145     10.154
  76  157     33.575     18.359     -0.855
 216  166     64.094     17.353      5.352
 150  249     42.875     17.316     11.647
 138  666     42.576     -6.264      6.115
 154  101     27.270     23.628      9.247
  39  657     52.347      7.081     13.894
 152  153     27.027     24.461     -0.330
  -1   42     62.376     12.788      7.325
  -1  174     39.129      6.454      0.542
 132  373     52.969     27.078      4.307
  -1   -2     40.682     10.989     -7.087
 446  469     52.309     31.166      3.342
  83   49     27.433     15.650      1.353
 129  212     42.732     -3.509      8.190
  -1  164     45.643     -2.420     10.228
  -1  200     21.977     14.213      0.461
  -1   -2     43.399     -0.919      2.612
 139  161     23.266     22.513     -6.631
  -1   93     52.545     26.315     -4.360
  -1   -2     45.964     33.278      5.260
 166  169     36.300     12.216      6.853
  -1   -2     20.906      3.378      6.133
 149  163     32.723     11.871     12.569
 176  671     28.956      4.773     12.563
 110  171     36.850     15.698      7.938
 169  229     53.972     26.590      4.848
 237  135     38.164      2.450      1.380
  -1   -2     45.752      3.954      7.287
 155  129     39.975      4.949      0.864
 212  307     43.095     36.978      5.674
 184  239     27.231      6.132     -3.313
  -1  158     38.820     35.934     15.899
 241  109     39.227     39.961      4.921
 178  209     27.370     20.227      1.686
 173  670     25.040     18.907      2.837
 126  134     33.386     30.220     12.249
  -1   -2     40.732      0.683      1.521
  -1  251     52.095     22.634      9.225
 321  165     44.518     -2.101      3.404
 146  254     28.158      9.660      5.811
 165  189     25.756     16.615     -3.620
  -1   -2     29.487      6.880      8.924
  -1  255     35.594     13.689      8.666
 209  296     43.929     -1.966      6.722
  -1  213     34.860     -3.254     13.828
  -1  226     29.601      8.483      5.135
 192  199     34.589      7.484      9.864
  -1  181     34.330     13.292      6.467
  -1  124     36.534     19.343      9.378
 170  272     48.404     37.110      5.396
 208  172     62.903     19.852     14.468
 194  193     20.655      8.641     10.435
  -1   -2     32.397     22.526     13.930
 177  250     61.581     19.505     15.600
  -1   -2     18.917     30.524      9.326
  -1   -2     42.900     -2.931     12.285
 440  428     15.166     33.155      8.289
  -1  167     35.535      3.667      9.845
 167  234     62.870     18.504     13.578
 205  236     55.766     28.315      8.037
 186  218     25.357     24.927     -0.177
  -1   -2     45.184      5.190     21.494
  -1   -2     39.060      3.645      3.354
 188  217     25.414     13.057     -2.279
  -1   -2     26.029     -0.707     12.700
 159  205     33.264     14.199      0.221
 287  240     36.229     -2.670    -10.877
 225  214     26.970     26.018      7.869
 238  184     24.459     17.887      1.885
  -1  197     37.671      4.108      9.416
 204  215     58.054     24.076     12.153
 193  179     33.262     -3.461      5.732
  -1   -2     30.336      5.024      4.667
  -1   -2     36.926     -1.014     18.601
 230  253     59.617     26.760     10.482
 191  126     22.751      3.833     -0.945
 463  148     36.813     38.774      7.016
 222  243     28.264     13.745      8.771
  -1  203     52.855     23.254     13.789
 198  237     24.735     25.221      1.422
 206  241     29.151     23.483     11.243
 232  222     42.901      5.317      8.976
 243  265     29.170      6.591     17.350
  -1   -2     34.179      9.239      4.289
 217  279     23.276     33.345      8.404
  -1   -2     45.924     38.434      5.615
  -1   -2     58.180     30.198     13.655
 244  281     24.461     27.490      6.910
 291  290     54.580     -5.332     -0.552
 214  260     36.914      6.332     21.791
 251  299     22.849      9.965      5.668
  -1   -2     33.523     -2.418     13.219
 226  261     61.580     29.185      1.102
 189  295     43.744      9.144      4.084
 261  308     24.487     32.018      9.740
  -1  235     41.706     -4.784      8.493
  -1   -2     31.501     38.966     12.729
 215  672     35.616     11.249     11.571
 240  275     25.196     10.848      0.744
  -1  555     59.818     30.917     -0.187
 235  257     27.055     10.884     13.467
 247  276     29.596      3.596     14.668
 201  319     24.267      2.121      4.630
  -1   -2     26.265      8.391     -0.478
 245  673     23.851     22.483     15.603
  -1   -2     37.535     15.249     21.067
  -1   -2     31.948     -4.652      6.112
  -1   -2     41.488     18.693     -4.245
  -1   -2     47.490      4.459      0.216
 246  271     19.717     25.889     15.852
  -1  252     41.206     -1.156     10.559
  -1   -2     14.275     19.123      6.020
  -1   -2     53.076     37.062     21.859
  -1   -2     49.842      7.763      9.666
  -1   -2     28.270     10.435     12.041
 242  298     27.145      8.570     13.035
  -1   -2     12.763     24.872     10.149
  -1   -2     28.564     33.885      0.035
 263  310     18.243      4.017      3.320
 259  277     25.438      6.235      8.060
 274  159     44.206      4.972      7.937
 265  285     25.574     36.264      4.585
  -1  232     21.389     30.664     -2.466
 262  266     29.411     -1.631     14.537
  -1   -2     33.429      5.901     15.299
  -1   -2     35.875      8.739      4.950
 257  273     30.068     -0.557     14.671
 271  292     62.932     29.452     11.936
 269  297     19.643     17.231      1.374
 285  312     26.519      4.383     12.537
  -1   -2     33.069      5.942     17.806
 288  313     30.451     12.717     15.357
  -1   -2     43.099     -9.450     -5.930
  -1  258     37.075     15.283     10.691
  -1   -2     26.945     20.285     13.619
 301  314     48.338     23.329      4.908
  -1  324     47.952     21.162      5.899
 297  330     19.706      9.816      3.463
 233  270     37.239     -6.122      9.511
  -1   -2     35.216     -2.011     10.829
  -1  536     25.502     12.690      7.899
 322  675     43.630     15.032     19.646
 314  561     16.419     28.521      6.457
  -1  294     13.902      4.934     11.444
  -1   29     26.495     35.804      0.022
  -1   -2     38.205     30.660      7.254
  -1   -2     17.026     -9.339     -3.130
  -1  192     33.223      4.085     12.875
  -1   -2     32.440     37.057     -4.383
  -1   -2     52.463      8.549     25.091
 300  326     24.946     13.479     13.818
  -1  317     19.757      8.534      8.332
  -1   -2     36.265      7.091     10.519
  -1   66     51.493     26.418      0.543
  -1   -2     33.411     -6.194     -4.130
  -1   -2     37.796     17.842     -0.955
  -1   -2     32.721     35.473     18.822
  -1   -2     38.560     25.998     19.402
  -1   -2     30.913     35.345     18.466
  -1   -2     45.531      2.151      0.789
 267  289     21.219      1.123      7.242
  -1   -2     40.145     20.459     17.292
  -1  354     33.674     -5.616      4.438
 190  201     27.465     20.217      3.267
  -1   -2     31.423      1.441     16.258
  -1   -2     53.109     22.599     26.594
  -1   -2     48.697     11.927      8.238
  -1   -2     41.298     23.060     16.308
  -1   -2     50.855      8.271      2.445
  -1   -2     50.427     -2.754      2.955
  -1   -2     50.456      4.167     -3.464
  -1   -2     20.073     27.230     22.181
  -1   -2     32.242      7.262     14.682
 378  537     -2.493     18.986      8.680
  -1   -2     39.437      7.450     29.723
 394    8     57.716      4.781      0.591
  -1   -2     43.329     36.329     19.723
  -1  204     53.010     35.476      7.932
 347   75     54.417     23.854      9.817
  -1   -2     51.823     -8.322     -3.990
  -1   -2     56.075     10.587     20.213
  -1   -2     31.100      9.050     13.082
  -1   -2     34.962     21.638    -20.381
  -1   -2     46.665      3.673     29.070
  -1   -2     38.793     23.612    -18.153
 355  361     44.028      2.705     30.847
  -1   -2     34.758     28.142     -1.803
  -1   -2     27.231     38.261      2.620
  -1   -2     30.438     -1.666      9.133
  -1   -2     49.877     -3.804     10.365
  -1   -2     50.653     21.228      2.727
  -1   -2     37.110     25.537     21.916
  -1   -2     54.927     -5.031      0.443
  -1   -2     32.322     -5.238    -16.181
  -1   -2     19.620     26.548     -5.770
 336  370     51.099     40.936     -5.098
  -1   -2     50.956     24.083     13.344
  -1   -2     35.211     40.681    -11.513
 342  369     22.081     -0.194    -14.218
  -1   -2     48.537     -8.459      0.519
  -1   -2     35.902     33.059     12.510
  -1   -2     21.078     19.893      0.064
  -1   33     22.290     31.649      0.605
  -1   -2     32.756      1.880     21.582
  -1   -2     39.654     22.159     -1.773
  -1   -2     36.846     -7.594    -12.446
  -1   -2     33.493     10.579      3.084
  -1  496      5.669     12.615      3.507
  -1   -2     39.989     -7.021      6.706
  -1   -2     58.186      7.811     23.862
  -1   -2     40.583     -5.558     -3.942
  -1   -2      4.518     31.294     20.028
  -1   -2     41.712     26.935      6.716
  -1   -2     56.831     28.484     11.283
  -1   -2     20.359     -3.570    -13.496
  -1   -2     18.927      3.497      2.506
  -1   -2     32.305     31.963      0.153
  -1   -2      7.774     21.957      0.288
  -1   -2     14.301     16.578    -22.892
  -1   -2     27.763     -9.673     -3.246
  -1   -2     55.912     18.543     22.283
  -1   -2     50.584     -3.024     -2.307
  -1   -2     58.839     -0.436     16.106
  -1   -2     60.574     -5.656     -1.993
  -1   -2     56.232     -9.653    -18.160
  -1   -2     12.707     28.204     -0.208
  -1   -2      4.108     22.670     -4.548
  -1   -2     57.103     -6.374    -12.183
  -1   -2     10.054     32.131    -15.261
  -1   -2     56.579     22.178     29.640
  -1   -2     -2.025      6.551     -5.495
  -1   -2     62.828      6.500      8.583
  -1   -2     44.392     31.368      1.164
 434  403     54.474     15.948     -5.390
  -1  396     53.549     39.418     19.157
  12  655     49.990     18.090      1.014
 387  409     51.948     27.229     -2.180
  -1   -2     44.763     15.460     27.581
 104  398     47.672     27.064     11.492
 403  402     33.202     33.667     -9.175
  -1   -2     51.535     37.644     13.002
 423  407     60.139     41.275      2.252
 399  677     28.351     18.498    -15.251
  -1   -2     30.861     33.782     -8.324
  -1   -2     59.301     -2.229     16.383
  -1   -2     30.493     26.561     16.009
  -1   -2     63.743     -2.702     12.215
  -1   -2     49.618     28.744      6.476
  -1   -2     39.994     33.896     -1.999
  -1   -2     54.858      8.967     -4.182
  -1  394     23.573     -3.986    -25.810
  -1   -2     53.020     30.254      3.171
 101  417     34.563     33.424     10.125
  -1   -2     39.200     18.263     -4.476
 406  414     39.358     35.804    -10.412
  -1   -2     34.080     38.138    -21.247
 419  399     51.043     21.908      8.172
  -1   -2     24.460     21.630    -17.698
 420  438     29.493     31.912    -15.820
  -1  400     49.828     22.736      5.403
 309  674     31.723     33.807     17.237
  -1   99     28.486     36.831     -1.658
  -1   -2     26.736     -5.127    -16.045
  -1   -2     29.465      3.720     -4.503
  -1  452     29.948     31.183     -0.914
 410  678     27.526     35.484     -0.025
 436  432     59.506     -7.223      6.748
  -1   -2     58.308     -6.290      8.043
  -1   -2     54.851      9.559    -22.097
 124  422     33.451     38.243     13.065
  -1  473     48.844     33.884     17.386
  -1   -2     48.593     34.503      5.555
  -1   -2     70.609      8.420      4.828
  97  327     46.152     36.881      0.027
  -1   -2     52.841     22.749      2.890
 422  206     36.675     39.294      7.337
 405  423     64.709      3.762      8.874
 416  415     22.014     39.556      3.756
  73  421     37.697     30.956      2.968
 213  242     27.686     39.419     10.536
  -1   -2     48.625     14.694     14.062
  -1   -2     31.963     16.312    -13.637
  -1   -2     28.761      3.702     -1.153
 528  427     46.466     29.906     19.386
 449  441     50.891     28.569     11.797
  -1   -2     55.890     29.212     -0.761
 408  419     59.068     15.814     -5.188
  -1   -2     29.420     17.188     18.528
  -1   -2     36.365     -7.604    -24.821
 114  663     32.319     25.097      2.850
 447  306     52.997     24.109     -4.113
  -1   -2     30.339     38.428    -12.035
  -1   -2     35.197     10.230     13.802
 435  437     54.052     26.539     -3.277
  -1   -2     45.732     33.955     -7.666
 438  454     13.876     28.439      2.945
  -1  115     22.105     30.278     -2.832
 531  440     55.280     -2.210      3.971
 421  401     28.515     35.180      2.467
 248  485     19.583     22.779     -2.097
  -1   -2     19.454      8.542     -8.367
  -1  459     64.754     19.524     15.191
 432  679     36.630     39.004      1.594
 195  404     36.052     38.427     10.096
  -1   -2     38.257     12.053     -1.859
 141  411     46.446     29.886      4.659
 448  471     16.175     22.521      2.783
 476  453     21.644     22.772      3.249
  -1   -2     48.210     36.339     10.807
  90  465     56.265     18.577      2.697
  -1   -2     31.244     15.665    -12.501
  -1   -2     25.247     17.157    -15.290
  -1   -2     20.443     40.972      2.204
  -1   -2     30.954     28.189     16.023
 211  457     41.071     40.063      1.791
  -1   -2     22.574     34.537      2.194
  -1   -2     17.842     33.018    -12.991
  -1   -2     20.498     37.759     10.653
 485  470     51.373     33.886     -3.117
  -1   -2     22.583     35.608     -0.989
 473  467     39.643     39.547     -4.420
  -1   -2     43.398     30.895      4.690
  -1  482     39.821     39.028      0.625
  -1   -2     49.265     10.471     19.094
  -1   -2     17.307     16.230      2.538
 453  484     65.771     20.976     13.830
 460  475     48.536     37.631      6.129
  -1   -2     42.654     14.426     21.996
  -1  501     52.674     36.049      5.668
  -1   -2     28.126     23.539      8.150
 461  492     17.665     13.696      0.203
  -1   -2     32.486     38.922      4.090
  -1   -2     41.972      5.206     25.932
  -1   -2     39.633     -7.577    -16.200
 465  491     54.043     29.166     -4.437
 482  502     51.215     35.225      3.795
 483  487      8.346      8.440      8.207
 467   41     49.626     28.253      6.184
  -1   -2     11.662     28.519     -5.368
 466  479     50.044     32.668      4.621
  -1   -2     60.792      6.621      7.203
  -1   -2      5.242     34.243      9.432
  -1   -2     49.487     18.046     -2.769
  -1  474     46.695     37.265     -2.666
  -1   -2     38.014      5.214     26.677
  -1   -2     41.523     29.935     16.113
  -1   -2     46.924     35.928      1.179
 250  512     56.517     36.645     -0.058
 493  497     55.878     30.085      1.766
  -1   -2     11.039     23.123     -2.263
  -1   -2     31.857     20.698      1.597
  -1   -2     31.731     10.942     15.000
 480  513     58.037     35.355     -6.889
  -1   -2     12.966      3.021     16.061
  -1   -2     46.565     39.820     -7.034
  -1   -2     25.387     -8.302    -13.593
  -1  210     43.232     -6.208      3.805
  -1   -2     48.330     35.103     -3.113
  -1   -2     -0.714      6.539     -2.992
  -1   -2     25.737     12.666     15.380
 514  519     22.095     34.726     16.472
  -1   -2     44.675     33.633     13.493
  -1   -2      8.391     15.379     -1.309
 391  558     31.095     38.168    -20.314
  -1   -2      7.671      9.727     -1.752
  -1   -2     29.687     -3.110    -26.523
  -1   -2     55.123     33.699    -19.776
  -1   -2      2.314     16.945     11.820
  -1   -2      7.464      2.542      5.566
  -1   -2     47.891     35.412    -15.752
  -1   -2     27.701     42.338    -10.795
  -1   -2     45.871     15.005      2.680
  -1   -2     55.418     31.477     13.664
  -1   -2     41.975     14.777      1.328
  -1   -2     21.340     40.199     14.818
  -1   -2     11.728     -2.786    -19.781
  -1   -2     59.318     32.688      9.197
  -1   -2     37.347      2.803     23.598
 508  521     34.262     22.634    -25.831
  -1   -2     18.256     27.524     17.772
  -1   -2     32.530     -2.384     17.098
  -1   -2     20.309     11.853    -14.294
  -1   -2     31.274      4.537     14.383
 518  587     23.456     33.346     22.164
  -1   -2     39.789      2.459    -21.580
  -1   -2     29.516     -1.319     -6.420
  -1   -2     52.043     32.572     -8.089
  -1   -2     33.196     20.443      7.994
  -1   -2     34.618     33.282     17.568
  -1   -2     36.131      5.526     -9.239
  -1   -2     32.248     11.585     30.514
  -1   -2     54.707     39.357     -9.216
  -1   -2     32.638     23.365    -15.231
  -1   -2     31.915      6.223     14.425
  -1   -2     52.247     -5.346     13.865
  -1   -2     64.824     39.128      2.063
  -1   -2     35.141     10.369    -24.168
 547  680     23.916     25.370     25.483
  -1   -2     27.270     37.760    -16.894
  -1   -2     26.726     38.443     19.758
  -1   -2     33.844     28.119    -13.538
  -1   -2     33.801      4.871     -8.989
  -1   -2     34.912     -3.981    -15.640
  -1   -2     44.818     23.323      9.720
  -1   -2     26.969     11.838    -23.437
  -1   -2     34.633     11.408     -1.319
  -1   -2     31.514      8.083     -1.997
 519  549     62.611     39.407     -3.511
  -1   -2     39.553     17.968     17.224
  -1   -2     31.622     -4.922    -23.210
  -1   -2     25.493     -7.304      0.896
  -1   -2     53.766     -1.906     12.881
  -1   -2     41.021     -5.629    -14.431
  -1   -2     62.946     38.346     -1.145
 532  596     25.617     37.752    -19.859
  -1   -2     49.414      1.743     26.498
  -1   -2     42.111     25.475     -4.276
  -1   -2     58.834     30.667      2.705
  -1   -2     16.869     30.553     17.093
  -1   -2     16.971     22.381     14.146
  -1   -2     30.480     41.845    -17.242
  -1   -2     -3.727     26.879     -3.579
  -1   -2     33.272     23.015    -21.134
  -1   -2     29.202     36.350     20.952
  -1   -2     55.390     32.189     20.827
  -1   -2     52.420     16.375      7.004
  -1  556     55.996     11.808      3.674
  -1   -2     50.465     34.317     26.567
 502  614     28.295     38.177    -22.110
  -1   -2     28.970      6.124    -14.063
  -1   -2     43.296     33.629      2.721
  -1   -2     52.599     -3.409     10.911
  -1   -2     44.032      7.732     -2.012
  -1  582     17.332     32.330      7.153
  -1   -2     38.599     38.491    -10.159
  -1   -2     33.094     31.801     12.075
  -1   -2     27.710      0.579     24.114
  -1  560      5.569     35.326     28.802
  -1   -2     28.854      6.333     -7.825
  -1   -2      9.335     18.666     19.065
  -1   -2      4.189      8.098     12.961
  -1   -2     19.121      0.735     -3.181
  -1   -2     37.636      2.383    -26.306
  -1   -2     34.913     35.509     20.169
  -1   -2     55.334      5.410     -5.131
  -1   -2     30.783      2.840    -15.314
  -1   -2     32.918     37.527     -2.575
  -1   -2     68.230     13.673    -25.619
 562  595     16.097     27.469     14.704
  -1   -2     20.492     25.192     20.082
  -1   -2     56.812      8.326      4.002
  -1  574     26.009     26.732     26.574
  -1   -2     25.709      6.083     17.412
  -1   -2     29.877     28.988     13.666
  -1  609      7.958     -2.745      1.588
  -1   -2     22.503      4.935     -1.671
  -1   -2     14.660     27.871     13.745
  -1   -2     65.677     33.695     11.753
  -1   -2     58.685      1.101    -10.074
  -1   -2     57.301      1.651     17.833
  -1   -2     45.090      1.912     11.531
  -1  599     23.773     39.776     -1.687
  -1   -2     19.500     12.085     12.815
  -1   -2     28.607     15.422     -5.914
  -1   -2     47.129      8.735    -20.431
  -1   -2     34.417     18.245     20.746
  -1   -2     51.264    -10.866     -2.644
  -1   -2     44.273     38.300    -24.803
  -1   -2      4.654     38.174     24.287
  -1   -2     28.865     20.825     10.849
  -1   -2     18.326      4.522    -16.177
  -1   -2      3.085      4.413     23.545
  -1   -2     49.151     39.102      7.102
  -1   -2     42.458     13.082     17.443
  -1   -2     56.672      2.656     -0.862
  -1   -2     54.217     27.791      7.357
  -1   -2     23.190     30.639      1.630
  -1   -2     24.605     -2.442      4.957
  -1   -2     10.838     19.298     -6.340
  -1   -2      3.031      9.132    -21.857
  -1   -2     43.963      5.334    -14.571
  -1   -2     68.850     -5.762    -12.443
  -1   -2     14.491     34.003    -23.232
  -1   -2     52.061     12.317      9.406
  -1   -2     17.315      5.991     -1.903
  -1   -2     71.997     19.569     -5.156
 602  627     69.112     34.095     -2.608
  -1   -2     13.379     21.698     -9.830
 604  630     12.043     25.835    -24.559
  -1   -2     44.715     28.982     22.453
  -1  615     70.601     13.084     -3.859
 614  631     61.005     26.018     20.399
  -1  636     65.840     31.644    -15.414
  -1   -2     63.444     21.226     24.611
  -1   -2     37.713     42.137    -16.147
 618  640      5.040     27.590     30.164
  -1   -2     62.147     35.075     10.705
  -1   -2     14.407     15.127    -21.153
  -1   -2     64.503     34.683     -8.139
  -1   -2     33.238     37.036     -7.609
  -1   -2     63.277     -8.406    -22.100
  -1   -2      9.627      2.375    -22.326
  -1   -2     16.905    -15.374    -22.080
  -1   -2     54.665     39.714    -19.038
 624  646     -5.406      7.708     -0.704
  -1   -2     -4.299     24.333      1.435
  -1   -2     62.925     -9.992      0.818
  -1   -2     61.543     -3.892     14.416
  -1   -2     19.019     11.877    -22.744
  -1   -2     10.893    -14.912    -21.275
 634  650     16.049     38.982    -17.580
  -1   -2     26.321      2.434     30.803
  -1   -2     62.506     12.269      5.204
  -1   -2     69.905     10.372    -17.370
