703
  -1   -2     55.406     13.845     11.038
  -1    1     57.128     14.658      7.015
 317   12     48.053     23.903      4.656
  28   -2     50.066     15.186     -3.414
  -1    8     55.760     18.423      7.077
  11   28     53.339     19.809      8.640
  -1   15     41.272     19.766     -3.936
  20   -2     58.529      9.430     15.110
  41   -2     58.384      0.345     11.203
  -1    2     44.432     32.385      1.231
  17   57     61.241      2.212     -3.970
   0  426     49.362     15.159      3.168
   6    7     43.077     28.900     -2.403
  -1   -2     38.687     27.741     -0.865
  25    4     47.116     17.680     -2.480
   8    6     40.084     23.430     -4.291
 357  302     54.954      7.272      3.969
   5   25     46.883     17.057      7.276
   2   13     55.104     14.476      8.473
  -1   11     57.870      5.302      0.684
   7   34     57.988      7.208     11.043
   4   20     56.175     11.358     13.292
  22   27     56.743     16.430      8.323
  13   21     44.312     25.427     -2.154
  30   37     47.479     11.778      1.182
  16   19     37.922     35.088     -0.055
  43  644     45.658     13.402      6.101
  27   80     44.665     22.613     -1.591
  14  295     38.115     31.036      7.566
  56   24     62.615      6.110     17.817
   3  383     45.644     20.838     -3.353
  -1   30     48.408      9.053      0.343
  -1   -2     24.930     19.106      0.613
 652  386     43.157     22.676     -2.624
  -1   65     27.360     39.007      2.119
  47   81     34.656     32.405      9.010
 678  388     49.951     19.092      0.957
  -1   -2     56.105     10.726     20.311
 147   84     45.353     17.313     12.741
 649  102     45.903     12.207      4.135
 324   36     36.411     23.977      6.773
  -1   33     37.827     38.128    -13.301
 648   46     44.068     17.433      4.383
  52  645     39.109     21.675      0.171
  -1   68     35.154     32.622      9.212
 120   40     58.337     15.026     11.594
  34  642     46.722     27.335      6.234
 676    9     47.794     21.672      6.148
  83   62     62.456     13.111      7.254
  50  403     49.937     28.632      6.343
  -1   -2     49.672     10.296     21.227
 105   -2     40.602     18.313      0.547
  26   32     26.423     36.579      0.086
  -1   -2     42.631     24.793     -0.088
  -1   -2     34.594     25.739      0.487
 273  285     38.488      8.643      4.578
  63   76     43.534     31.948     -1.065
  -1   45     37.473     23.369     15.391
  -1   -2     44.380      5.595      7.709
  42   66     54.911      9.293     10.376
  -1   -2     46.255      8.460      5.708
  65   69     52.398     26.963     -1.964
  80  648     34.203     15.881      6.205
  71   75     28.035     33.063      5.216
  40   54     51.838     15.195     17.262
 650   38     32.313     20.130     -8.494
  29   59     43.563     24.297     -4.561
  76  126     59.055     16.221     11.303
  -1   60     30.196     38.748      2.276
  36   83     22.480     32.367      0.552
  19  640     33.101     30.752      6.457
  55  122     36.172     22.033     15.078
  -1   -2     45.126     26.950      8.794
  10   16     46.390     19.771      0.407
  31  641     55.059     16.775      5.757
  99  116     43.224     32.705      4.153
 129   92     41.661      6.842      4.088
  -1   -2     46.853     17.741      9.435
 132  135     28.277     37.504     -1.719
  92   78     37.091     32.298      3.523
  98  649     41.085     24.407     24.322
  -1   63     52.786      0.469     21.039
 261   71     22.708     14.966      6.537
  -1  107     46.786      0.898      1.366
 121  110     24.089     27.094     -5.386
 130  219     28.711     30.889      8.538
 141  657     35.512      4.406      9.772
  69   64     29.465     29.486      1.910
  72   90     40.674     21.529      5.542
  87   95     55.884     22.881     14.818
  70   82     39.955     25.299      3.043
  60   55     37.988     18.339     -1.284
 131  112     24.649     21.831     -2.167
 134  653     53.541      5.428      9.017
  45   72     44.702     13.366     -1.549
  48   53     46.142      7.477      2.553
  -1   -2     48.060      8.959     -3.124
  -1  113     28.672     -3.053      7.552
  46  164     45.909     31.047     -1.438
 124  143     25.592     39.089     -0.808
  -1   -2     31.803     -1.129      6.048
 106  156     43.941     38.056      5.097
  73  315     32.098     11.837      2.171
 425  118     29.952     24.633     -1.789
  15   -2     34.112     34.617      7.058
  88   56     25.141     24.629     -3.647
  -1  103     24.342     26.251     12.779
 114  111     35.742     14.568      5.176
 304   -2     30.756     -4.443     10.214
 119  149     29.158      2.542      7.134
  -1   -2     41.231      4.425      9.606
 667  124     38.274      2.864      1.565
  -1  296     38.604      6.121     10.848
 111  101     34.356     14.724     13.208
 399   67     38.040     28.414      3.696
  77  647     36.635     26.000      6.270
 116   99     38.491     26.850     10.998
 140  656     49.401     25.345      8.689
  -1  159     30.179      5.891      4.555
 284   31     55.436     11.064     10.412
  -1   -2     52.858     23.373      2.792
  -1   -2     49.740      4.887     10.677
 177  196     32.452     22.773     13.625
  -1   -2     52.385     -3.292     10.509
  -1  154     41.288     -4.899     10.456
  -1  256     28.801     -1.459     13.914
 199   93     63.053     20.017     14.432
  84   58     35.064     25.226      3.153
 184  150     29.231     23.713     11.062
 112  650     29.106     -1.306      8.210
 104  178     25.424     17.424     -0.752
 110   77     41.540     14.796     15.026
 170  660     37.379     15.648     10.141
 179  137     46.807     -0.421      6.045
 137  654     43.580     22.523     13.985
 151  131     52.788     23.427     13.812
 108  109     33.440     19.021      3.511
 136  144     43.458     34.068      5.101
 122  130     33.095     30.738     12.312
 163   96     50.211      0.520      3.578
  94  125     40.670     10.366      1.684
 175  100     47.099     -0.691     -0.041
  78  151     33.314     14.732      0.156
 115  104     31.227     21.583      1.375
  -1  166     39.323     25.672      5.530
  -1  197     26.893      2.085     15.013
 146   73     42.894     17.660     11.559
 162  173     44.063      6.141      9.884
  -1   -2     45.076     24.538      9.157
 133   97     22.193     27.739     -6.796
  -1   -2     33.989      5.730      4.804
  -1   91     48.537     12.862      4.635
  85  147     31.477     18.589     10.067
 126  163     43.860     -0.014      2.783
 174  212     45.580      1.653      8.966
 128  652     54.402     24.292     10.175
  -1   -2     52.990     27.476      4.212
  82  420     37.692     31.585      2.782
 157   86     45.489      3.265     -4.180
  -1  233     48.152      6.780     10.406
 153  658     53.880     28.203      9.939
 201  179     44.894      2.400      7.545
  -1   -2     40.770     -4.028      9.691
  -1   -2     29.309     15.420     -5.268
 123  121     21.983     30.717     -2.841
 159  140     40.720     16.403     21.248
  86  155     32.869     12.426     12.534
 414  123     35.676     24.145      6.272
 113   -2     52.171     22.896      9.210
 215  202     36.141     12.901      6.671
 154  142     28.107     20.012      7.339
 166  169     34.179     14.073      6.265
 191  205     53.045     35.908      7.673
 167  152     36.781     16.186      7.652
 101  132     23.242     22.890     -6.660
 658  114     58.680     31.557      8.975
 666   89     45.798     -2.058     10.149
  -1  195     28.765      9.548     -3.294
 225  210     58.044     24.227     12.155
 169  659     25.822     16.900     -3.860
 150  203     46.141     33.686      5.252
  -1   -2     33.152     -2.646      5.872
 226  146     39.093     23.126      4.670
 127  119     19.562     26.957     -5.393
  -1   -2     34.725     -3.023     13.764
 103  199     27.019     24.858     -0.470
 202  209     32.800     14.479      5.163
 176  185     28.551     27.553      8.926
 188   -2     44.842     -1.248      3.474
 186  206     24.002     24.223     10.873
 675  271     35.551     11.608     11.405
 165  430     34.910     24.275      5.782
 158   88     36.412     26.413      3.121
  -1  175     34.704     23.949     14.648
 181  243     22.811      4.017     -1.051
  -1  192     29.506      7.466      9.007
 445  471     50.765     28.805     11.725
 239  211     62.987     18.713     13.511
 415  136     45.858      4.470      7.215
 210  453     54.013     26.986      4.862
 245   -2     29.883      9.984     21.473
 145  161     32.345     21.046      0.525
 172  227     25.316     25.346     -0.205
  -1   -2     29.196      3.011      4.313
 222  180     22.688     10.317      5.840
 221  244     25.480     13.304     -2.446
 183  661     27.403     20.691      1.404
 230  245     27.583     20.866      3.107
 228  115     42.051     -4.697      7.223
  96  225     40.116     20.536     17.154
 457  287     22.551     34.694      2.029
  -1   -2     37.944      1.188      6.150
 156  208     27.539      5.363     -0.553
 168  228     64.217     17.709      5.232
 254  238     28.982     28.488     11.704
 107  165     33.507     22.383      4.284
 213  691     21.058     21.917     15.398
 117  651     27.243      6.407     -3.360
 189  213     27.016     26.357      7.776
 231  214     34.796     -1.948      9.869
 217  141     29.511      9.247      4.950
  -1   -2     33.769     21.642      9.803
 193   -2     34.657     17.854     23.714
 250  220     25.858     -0.288     12.527
  -1   -2     31.894      0.964     15.634
 692  177     34.418      7.907      9.781
 203  223     22.596     30.836     -6.266
 232  255     24.438     18.265      1.560
  -1  198     20.778      3.643      5.919
 214  435     36.536     39.558      7.074
 257  692     27.015     11.018     13.442
 236  242     22.036     14.483      0.168
 258  275     23.253     33.652      8.544
 688  447     39.588     40.303     -4.631
 190  201     39.200      6.867      0.615
 218  217     39.054     40.181      4.820
 223  224     24.884     29.946     16.133
 243  189     25.237     19.039      4.729
 237  235     55.790     28.659      8.049
 673  193     37.753      4.759      9.292
  -1   -2     43.526     -5.552      4.371
 204  246     21.269     31.067     -2.375
 252   -2     47.136     11.234      4.016
 206  226     28.273     14.202      8.604
 255  237     28.133     10.238      5.547
 209   -2     20.618      8.817     10.430
 197  662     27.647     39.821     10.623
 211  218     32.897     18.198      8.885
 260  248     59.633     26.946     10.439
  -1  160     37.339     16.966     17.465
 241  323     40.064     -6.270      6.947
 198  200     32.367      7.548     16.578
 471  439     45.866     37.501      1.388
 249  231     39.091      4.122      3.529
  -1   -2     32.148      7.537     14.791
  -1  241     57.633     33.285      6.511
  -1   -2     42.878     -2.642     12.255
 282  204     24.474     27.762      6.866
 269  269     26.297     17.275      5.320
  -1   -2     26.324     18.590      1.482
  -1   -2     45.184      5.181     21.383
  -1   -2     36.912     -0.983     18.562
 238  222     36.530     15.271      8.996
 240  236     48.352     37.395      5.242
 246  664     14.311     19.128      5.940
 288  270     61.744     29.480      0.946
  37   -2     48.568      1.124      3.035
  -1   -2     20.063     27.180     22.302
 383  339     44.143     -5.265     10.545
  -1   -2     40.114      2.918     26.683
 278   -2     37.283     -5.721      9.193
  -1   -2     35.426      2.464      2.950
 393  322     34.865     22.485    -19.628
 272  262     27.106      8.824     12.979
 281  276     59.267     31.531      3.660
 227  663     22.783     13.713      4.500
 674  690     41.814     -4.314      8.570
 266  257     29.191      6.787     17.406
 270  259     59.989     31.155     -0.226
 267  666     19.755     25.887     15.752
  -1   -2     55.353     -4.278      0.022
  57   94     33.739     26.720     13.437
 253  268     25.007      9.022      8.072
  -1   -2     22.546     12.328     19.450
 325  263     23.882     22.518     15.457
 220  221     36.811     19.885      9.147
 693  134     44.038      9.811      4.158
 497  497     56.701     37.043     -0.323
  -1  266     33.297     -1.938     11.738
  -1   -2     32.180     34.349     14.182
  -1   -2     23.777      4.088     13.322
  -1   -2     39.110      0.286     -1.355
  -1  297     45.866     38.577      5.560
  -1   -2     35.376     34.233      1.398
 280  284     12.953      3.007     16.070
 478  301     48.461     37.858      5.975
 296  280     19.680     17.334      1.229
 192   -2     46.035      2.663      0.760
 292  294     47.589      0.324      5.556
  -1   -2     16.399     28.608      6.496
 286  288     62.941     29.520     11.899
 247   -2     18.853     30.687      9.240
 277  261     28.251     10.754     11.961
 301  667     55.449     32.159     21.354
  -1  281     18.237      4.151      3.084
  -1   61     36.872     19.586      1.335
  -1   -2     44.175     -1.482      6.888
  -1   -2     39.032     11.484     21.705
  -1  303     36.308     -2.183    -10.932
 276  290     17.624      3.194      9.191
  32   -2     50.454     17.435     16.453
  -1   -2     42.957     27.920      0.368
  -1   -2     48.547     19.914      2.466
 274  289     33.385      6.203     15.257
 309  300     25.531     12.992      7.781
  -1   -2     26.223      8.715     -0.446
  -1   -2     13.892      4.930     11.359
  -1   -2     34.872      7.004     24.212
 302  291     15.772      0.633     16.465
 289  311     33.084      4.355     12.805
  -1   -2     22.036     -1.657     14.703
 283   -2     25.448      6.531      7.961
  -1   -2     23.850      4.258      2.561
  -1   -2     33.596     28.869     -6.336
  -1   -2     50.370     10.470      6.259
 437  454     24.432     32.300      9.740
  -1   -2     30.455     12.876     15.312
 305  668     21.112     17.862      5.523
  -1   -2     34.376      7.358     14.236
  -1   -2     36.309     -3.731      2.165
 409  316     34.711     18.296      4.020
 219  184     42.893     -3.114      8.384
  -1   -2     21.906      7.946      9.525
  -1  183     46.223     37.511      0.089
  -1   -2     38.858     -1.792     -3.294
 303  299     26.467      4.686     12.539
  -1   -2     24.950     13.558     13.738
 125  278     35.747     -0.705     10.368
 420   -2     15.087     33.294      8.347
  -1   -2     42.816     14.774     -6.926
  -1   -2     29.176      5.361     10.841
  -1   -2     40.309      5.143      8.443
  -1   -2     52.116     -7.791     -4.284
  -1   -2     59.371     32.812      9.090
  -1   -2     40.038     38.624     -3.283
  -1   -2     24.248     37.230      7.873
  -1   -2     45.134      0.837      9.097
 323  337     50.640     -2.272      3.703
  -1   -2     43.932     25.506      1.151
  -1   -2     51.791    -10.364     -5.500
 350   70     34.399     33.975     10.201
  -1   -2     36.222     27.124     12.201
  -1   -2     52.190     11.417      8.450
  -1   -2     42.857     14.967     22.137
  -1  133     35.048     35.782     20.286
  -1   -2     33.425     17.075     30.360
 271   -2     53.085     36.988     21.540
  -1   -2     31.139     35.709     17.811
  -1  120     34.511     38.175     12.370
  -1   -2     40.650     -4.148      6.687
  -1   -2     28.634     28.825    -14.367
  -1   -2      5.861     12.531      2.656
  -1   -2     51.003     10.179      0.996
  -1   -2     33.815     -2.840    -19.720
  -1   -2     46.873     -1.850     -9.907
  -1   -2     33.798     -5.913     -3.211
  -1   -2     47.397     -0.078     12.523
  -1   -2     44.633     -7.289      4.883
  -1   -2     39.376     35.629     18.490
  -1   -2     33.980     -0.704    -15.095
  -1   -2     51.991     11.541      2.101
  -1   -2     46.715     10.898     -2.295
  -1   -2     51.686     27.929     18.755
  -1   -2     45.938      9.542     20.471
  -1   -2     45.293      5.014     19.325
  -1   -2     44.769     27.757     -1.879
  -1   -2     28.582     34.528     -0.399
  -1   -2     41.117     -0.860     10.080
  -1   -2     23.919     33.909     26.328
  -1   -2     51.366     -0.913     17.572
  -1   -2     53.886      4.860     16.263
  -1   -2     52.471     31.014      0.804
  -1   -2     51.946      9.740      2.169
  -1   -2     28.240     36.178     19.654
  -1   -2     61.479     27.343      3.253
  -1   -2     28.322      3.861      9.731
 376  361     56.861     28.741     11.245
  -1   -2     55.837      0.672     -8.370
  -1   -2      7.804     21.935      0.162
  -1   -2     54.227     11.764     15.051
  -1   -2     48.269     -9.078     -2.618
  -1   -2     52.578      8.618     24.988
  -1   -2     59.384     28.297      2.672
  -1   -2     62.479     23.949     11.454
  -1   -2     15.717     28.198     13.679
  -1   -2     30.580     -7.581      6.371
  -1   -2     16.636      6.560      0.161
  -1   -2     53.412    -12.217    -14.594
  -1   -2     55.632     31.195     30.093
 389  379      9.966     32.209    -15.358
 423   -2     28.387     35.746      2.401
  -1   -2     30.266     31.330    -13.501
  21   39     35.993     28.412     -6.671
  -1   -2     24.175     39.845    -19.750
  -1   -2     51.041     11.343     17.436
 397  389     49.882     28.970      6.276
  -1   -2     64.149      2.476     16.004
  -1  408     34.936     26.509     -4.602
  -1   -2     64.611     -1.458     -0.779
 401   -2     42.400     26.170      7.169
 402  670     45.401     19.775      2.700
  -1   -2     47.699     27.123     11.418
  -1   -2     34.039     38.719    -21.220
  -1  168     35.165     39.760      9.017
 398  394     49.696     23.257      5.274
  -1   -2     59.341     -2.143     16.348
  18  397     51.209     27.151      0.391
 160  416     46.236     34.656     -0.266
 392   -2     42.254     32.897     -1.864
  39   51     23.352     26.791      0.900
  -1  396     53.788     10.678      7.792
 680   -2     51.069     22.173      8.177
 407  402     14.065     23.112      4.435
 405  145     45.030     19.398      4.984
  -1  409     32.045     16.799    -13.686
 679  410     28.358     18.959    -15.161
  -1   -2     24.409     21.872    -17.978
  -1  399     51.199     41.582     -4.679
 439  393     39.572     36.545    -10.768
  -1   -2     31.006     39.049      0.132
 403  671     33.167     34.197     -9.241
 430  413     52.035     27.825     -2.034
   9  407     54.400     16.235     -5.427
 684  422     32.292     25.905      2.670
 419   -2     68.633     11.721      0.684
 412  674     38.796     28.098      1.139
  -1   -2     32.068     -3.510      0.553
 448  424     54.140     27.026     -3.290
 438  427     36.460     39.537      1.541
 433  400     59.005     16.050     -5.239
 462   -2     37.750     31.040      7.538
 406  412     34.221     40.562     -0.942
 422  675     29.880     31.817     -0.976
  -1  415     70.569      8.511      4.731
 645   23     52.739     11.227      2.370
 100  138     52.666     26.915     -4.250
 421  465     53.067     24.593     -4.054
 109  467     36.680     39.044      6.960
  -1   -2     48.048     37.219     -0.168
  -1   -2     42.600     30.047     23.912
 440  414     55.404     28.865      0.022
 432  445     56.364     19.005      2.642
 434  677     48.545      4.220     16.482
 685  418     55.509     -1.659      3.915
 459  434     45.774     34.435     -7.765
 426  676     55.029     -3.358      5.337
  -1   -2     31.645     33.962     17.322
 410  432     36.783     41.343     -6.676
 118  452     26.723     26.485     -2.304
 454  230     13.858     28.573      2.912
  -1   -2     37.577    -13.658    -17.359
  -1   -2     17.810     33.226    -13.087
 443  190     57.647     21.888     -1.467
  -1  442     16.197     22.586      2.824
 451   -2     64.881     19.643     15.156
  -1   -2     20.561      7.077    -25.223
 446  469     50.450     32.959      4.359
 411  438     60.100     -6.200      6.401
 455  461     17.360     16.268      2.360
 450  679     48.984     33.073      6.772
 447  493     23.653     -3.870    -25.695
  -1   -2     20.409     41.206      2.086
  -1   -2     62.226     24.262     18.827
  -1   -2     43.592      6.309    -10.999
  -1   -2     47.155     36.440      1.132
  -1   -2     33.331     18.198      5.240
 299   -2     29.746     -0.357     14.524
 517  448     31.439      9.615     -1.500
 515  684     23.243     21.967    -11.036
  -1   -2     34.468     39.533      3.255
  -1  459     14.781      6.243     24.302
  -1   -2     71.160     13.076     -0.738
  -1   -2     40.178     34.908     26.127
  -1   -2      9.504     18.767     18.677
  -1   -2     34.135     -6.576      1.828
 511  456     28.179     23.901      7.766
  -1   -2     43.417     38.598     10.697
  -1   -2      8.374      8.440      8.097
 475  491     51.278     33.778     -5.497
 484  682     46.899     37.736     -3.119
  -1   -2     19.942     39.126     10.455
  -1   -2     36.945     12.100     31.609
 464  477     56.023     29.621     -0.827
 501  490     50.071     35.494      5.040
 418  503     48.720     34.774      5.509
 504  683     46.805     40.372     -7.167
 297  480     16.913     12.453      3.053
 518  494     56.021     30.394      1.726
  -1   -2     27.333     -0.786    -21.297
  -1   -2     11.632     28.650     -5.486
 486  488     58.329     35.795     -6.924
 452  309     22.002     39.838      3.777
  -1   -2     55.366     12.572     23.544
  -1  417     30.216     37.868     19.237
  -1   -2     37.211     15.788     25.640
  -1   -2     24.971     39.143    -11.652
  -1   -2     50.996      4.649     19.883
  -1   -2     44.295     30.525     -7.527
  -1   -2     31.909     -7.871     -3.556
  -1   -2     50.403      4.824     13.407
  -1   -2     48.917     20.248     28.339
 505  507      7.495      2.549      5.474
  -1   -2     45.539     14.820     25.484
  -1   -2     49.293     10.713     19.563
 482  501     51.397     35.591      3.695
  -1   -2      5.946      9.687      0.106
  -1   -2     52.562     40.118      1.186
 519  509     26.011     26.864     26.411
  -1   -2      9.452      6.470    -11.340
  -1   -2     43.781     17.774      9.072
  -1   -2     60.425     23.903    -19.331
  -1   -2     59.417      3.376     -1.461
  -1   -2     47.466     24.796     10.855
 507  518     48.170     40.098      2.501
 532   -2      5.567     35.380     28.689
  -1   -2     26.477      0.957    -25.120
  -1   -2     17.719     13.740      0.122
 537  535     59.783     37.770      5.738
  -1   -2     28.094     16.651     -3.676
 549  498     14.480     29.969      4.583
  -1   -2     36.569     22.348      7.597
 521  536     54.131     36.078      1.607
 541  685     61.158     33.407      5.281
 509  521     53.756     33.163      0.628
  -1   -2     32.011     29.747      3.197
 477  581     68.197     13.716    -26.522
  -1   -2     29.924     38.602     18.048
  -1   -2     33.333     36.406     21.719
  -1   -2     18.826      3.813      2.585
  -1   -2     56.001     13.051     10.399
  -1   -2     29.768      8.323     21.890
  -1   -2     42.423      8.260     -2.995
  -1   -2     69.108     34.574     -3.727
 337   -2     14.657     27.901     13.762
  -1   -2     36.317     11.114      8.325
  -1   -2     47.328     18.777     18.138
 429  504     33.346     20.776      7.756
 539  548     44.994     39.896     -7.340
  -1   -2     54.905      4.800     -6.185
  -1   -2     18.970     27.785     30.656
 530   -2     -2.470     18.932      8.477
  -1   -2     40.077     26.704     -6.721
  -1   -2     28.552    -10.021     -5.396
 335  529     -3.039     22.870      1.392
  -1   -2     18.650     12.352    -23.801
  -1   -2     33.139     10.497    -19.515
 579  563     27.770     42.852    -11.792
  -1   -2     45.256     19.566     30.606
  -1   -2     37.095     -3.240      3.294
  -1   -2     38.344     29.217     -1.829
  -1   -2     30.286     17.370     -9.090
  -1   -2     50.257     34.523      3.904
  -1   -2     36.344     22.683     10.579
 548  569     62.872     39.801     -3.638
  -1   -2     45.811     13.402     15.113
 556   -2     17.303     32.459      7.202
 617  593     58.888     -0.639     21.545
  -1   -2     64.086     31.750      0.977
  -1   -2     25.689      1.791     29.178
 562  550     61.287     38.990      3.909
  -1   -2     39.706     38.390    -15.221
  -1   -2     37.245      9.068      6.591
  -1   -2     26.252     11.922     -7.785
  -1   -2     34.445     33.112     29.936
  -1  572     -3.707     26.822     -3.659
  -1   -2     64.066    -10.580     -2.481
  -1   -2     30.119      4.883     17.441
  -1   -2     31.761      1.001     13.280
  -1   -2     27.563    -15.628    -24.519
  -1   -2      4.622     38.208     24.122
  -1   -2     37.076     36.915     27.464
  -1   -2     36.999     19.451     19.805
  -1   -2     55.459      5.924     -5.237
  -1   -2     12.000     28.465    -19.320
  -1   -2     32.084      3.962     12.533
  -1   -2     62.112     12.176      3.237
  -1   -2     53.937     37.801      8.402
  -1   -2     27.915      1.883     19.351
  -1  304     48.983     13.184      6.759
  -1   -2     52.610     -6.673     10.684
  -1   -2     44.487      8.575     16.382
  -1   -2     70.584     11.917    -16.652
  -1   -2     20.708     20.361     15.432
  -1   -2     56.652      9.450    -12.459
  -1   -2     22.884     35.613     19.622
  -1   -2     41.116     28.810     12.870
  -1   -2      4.547     31.179     19.760
  -1   -2     32.175     28.894      8.396
  -1   -2     23.139     30.975      1.773
  -1   -2     33.670      4.709     24.796
  -1   -2     19.373     28.475      7.478
  -1   -2     33.679      1.515      9.453
  -1   -2     54.805     30.589     -1.163
  -1   -2     49.045      8.233     -7.638
 560   -2     59.756     35.208    -20.754
  -1   -2     28.805     24.325     16.751
  -1   -2     47.696     35.677    -16.684
 594   -2     23.694     40.114     -1.566
  -1   -2     57.540     43.479      4.049
  -1   -2      9.808     21.807      1.266
  -1   -2     42.175     12.689     13.221
  -1   -2     32.067     37.972     -6.315
  -1   -2     27.657      0.470    -26.501
  -1   -2     49.364      6.676    -25.754
  -1   -2     52.110      6.841     12.687
  -1   -2     41.147     40.221    -17.285
  -1   -2     25.940     37.008    -22.495
  -1   -2      0.817     16.816     17.872
  -1   -2     54.749     32.927    -21.537
  -1   -2     40.348     38.552      5.654
  -1   -2     28.093     38.540    -17.059
  -1   -2     23.950     13.009      6.211
  -1   -2     19.056     22.461     -4.289
  -1   -2      8.186     23.888    -25.742
  -1   -2     10.862     23.351     -3.060
  -1   -2     20.014     29.198     22.732
  -1   -2     16.075     22.871    -15.361
  -1   -2     28.831     26.464     10.389
  -1   -2     28.411     15.748     24.877
  -1   -2     52.014     -4.575      5.829
  -1   -2     13.603     13.880     15.581
  -1   -2     33.261     20.321    -20.928
  -1   -2     29.220     36.824    -17.431
  -1   -2      0.603      6.300      3.178
  -1   -2     27.688      0.888     23.664
  -1   -2     71.107     24.628    -13.755
  -1   -2     14.752      7.319     18.027
 630   -2     66.041     36.437     -1.719
  -1   -2     28.692     -8.308      0.167
  -1   -2     52.505     36.763      6.410
 632  631      5.047     27.570     30.107
  -1   -2     68.313     26.020    -16.086
  -1   -2     54.792     40.012    -19.460
  -1   -2     15.526     33.049    -26.166
 641  634     -5.368      7.697     -0.750
  -1   -2      0.459      6.571     -6.599
  -1   -2     52.035     38.537    -24.006
  -1   -2      4.085     -9.002    -13.470
  -1   -2     15.977     39.170    -17.620
  -1   -2     10.920    -14.862    -21.278
  44   22     55.696     18.704      7.826
  59   26     35.752     32.648      0.625
  24   -2     43.394     15.851     -4.069
  38  643     53.838     19.516     15.135
 400   -2     50.713     22.220      2.918
 647   35     40.063     21.377      4.421
  35   50     34.825     29.061     -1.642
  54   41     27.290     16.402      1.049
  75  646     40.933     21.235     24.844
  68   42     41.809     14.143     -4.425
 654  392     48.022     21.830      1.319
  74  188     49.023      5.279     12.223
 102  139     44.652     37.884     -2.012
 651  686     25.032     24.270     -3.955
 139  655     34.724     17.446      6.173
 294   -2     48.064      0.050      2.194
 655  128     44.654     27.787      8.686
 144   -2     40.039      5.310      1.276
 173  251     39.990      4.138      3.681
 665   -2     33.706     18.767     -0.682
 178   -2     33.339     11.603      3.586
 182   -2     54.876     28.648      9.112
 660  106     36.037     22.393     16.715
 244  191     34.430     15.367      8.842
 663  688     27.208     36.069     11.222
 195  194     24.735     25.529      1.378
 670  689     35.415     14.242      8.519
 298   -2     21.178      1.412      6.859
 314   -2     21.155      0.282      3.525
 312   -2     42.962     37.205      5.710
 319   -2     19.735      8.698      8.023
 313  669     19.676      9.949      3.164
 404  672     60.223     41.570      2.205
 687  446     46.360     30.392      4.677
 683   49     64.726      3.884      8.787
  49   -2     50.991     24.279     12.535
 408  673     27.786     37.453      3.410
 424   -2     59.492     -7.089      6.662
 653  429     31.022     27.660     -5.718
 449  678     48.823     28.725      6.456
 468  468     52.535     31.583      3.101
 465   -2     51.617     34.189     -3.522
 224  274     50.390     30.427      7.799
 682   -2     48.819     33.930     17.273
 483  681     39.695     39.480      0.296
 689  495     52.613     36.359      5.488
 516  511      7.726      9.690     -1.743
  51   -2     52.423      2.095      8.880
   1   -2     48.285     19.633     -0.830
 662  687     55.085      3.541     13.551
 669  249     25.004     19.281      2.729
 691  431     23.977     25.572     25.579
 463   -2     27.338     36.053     -0.210
