687
  -1   -2     55.664     14.618     10.983
  -1   -2     46.950     18.112      9.240
  -1   -2     48.206     21.386     -1.095
  -1   -2     58.656      9.675     15.025
  37   -2     56.329     11.764     13.216
  10   -2     61.314      2.399     -4.160
   2   -2     49.596     16.408     -3.561
  -1   -2     38.508     29.436     -1.296
  56   -2     46.672     19.045     -2.682
 653   -2     45.557     22.319     -3.771
  17   -2     49.100     14.117      4.758
  -1   -2     43.192     30.607     -2.483
  -1   -2     45.389     17.459     12.673
   1   -2     49.775     16.449      3.003
  25   -2     37.810     36.570     -0.361
   8   -2     47.736     24.972      4.413
  -1   -2     51.251     11.504      0.352
  -1   -2     40.921     19.465      0.488
  26   -2     53.780     19.710     15.082
 390   -2     58.049      6.016      0.673
  48   -2     34.648     33.390      9.150
  29   -2     37.821     31.627      7.566
  -1   -2     23.358     27.630      0.869
  21   -2     46.598     21.116      0.198
  24   -2     43.587     25.428     -4.721
  32   -2     46.432      8.938      2.318
   9   -2     46.844     17.634      6.982
  -1   -2     25.000     25.135     -4.100
  28   -2     43.977     18.469      4.055
  13   -2     27.159     40.175      2.157
  31   -2     36.704     25.089      6.483
  -1   -2     45.055     20.199      4.694
  -1   -2     54.102     11.583      7.976
  34   -2     24.981     19.991     -0.004
  93   -2     34.906     30.358     -1.767
  22   -2     56.086     19.344      7.059
  36   -2     50.995     10.173      2.058
  30   -2     35.508     29.612     -6.975
  86   -2     46.362      9.540      5.893
   6   -2     53.438     20.569      8.477
  -1   -2     22.440     33.229      0.765
  -1   -2     48.947     10.652      0.126
  -1   -2     40.313     11.565     -6.808
  -1   -2     45.614     13.098     14.185
  42   -2     26.199     37.715      0.099
  47   -2     26.698     13.772     -0.217
 169   -2     35.933     25.282      6.133
  -1   -2     45.293     27.666      8.830
  -1   -2     45.364     14.668     12.490
  -1   -2     27.084     17.607      0.682
  53   -2     33.845     19.494     -0.903
  80   -2     38.212     19.345     -1.251
  76   -2     36.891     20.879      1.335
  19   -2     55.927     19.714      7.882
  -1   -2     35.993     21.116     -4.510
  69   -2     47.718     22.393      5.917
 663   -2     32.173     12.929      1.712
  -1   -2     55.516     -3.468     -0.349
  73   -2     58.545     15.601     11.478
  54   -2     32.392     22.053      0.319
  -1   -2     34.535     27.093      0.258
  51   -2     34.460     19.747      3.702
  61   -2     32.897     31.951      6.356
  82   -2     31.899     37.296     11.818
  74   -2     36.945     33.252      3.309
  84   -2     45.143      3.189      7.263
  44   -2     39.953     22.399      3.998
 713   -2     33.259     23.821      4.283
  39   -2     40.758     22.476      5.018
  68   -2     40.034     26.127      2.557
  -1   -2     51.810     15.236     17.198
 689   -2     49.808     21.375     -3.416
  90   -2     57.123     17.269      8.189
  -1   -2     35.071     25.507      5.706
  -1   -2     41.414      5.018      9.325
  -1   -2     43.952      1.828      6.807
 213   -2     37.287     17.063     17.185
 119   -2     34.428     18.451      6.059
 114   -2     34.106     33.184      9.034
 396   -2     44.502     26.981     -2.352
  23   -2     58.147      7.575     10.956
  94   -2     36.159     26.657     15.657
  -1   -2     41.059     24.428     24.233
 110   -2     48.141      0.802      0.276
 133   -2     22.093     28.374     -6.633
  88   -2     38.181     29.206      3.261
  66   -2     33.289     27.354     13.508
 337   -2     52.785     -6.765     -4.387
  -1   -2     50.684     23.480      2.612
  -1   -2     29.136      3.929      7.222
  96   -2     49.344      2.571      2.718
  67   -2     33.895     34.813      9.873
 105   -2     47.672      2.482      1.656
 206   -2     32.555     15.905      4.698
 185   -2     43.606     22.542     13.915
  49   -2     49.728      5.488     10.829
 115   -2     37.347     10.744      7.368
 171   -2     58.780     32.063      8.945
 170   -2     28.694     28.108      8.776
  77   -2     59.270     16.848     11.177
  -1   -2     50.900      1.715      3.362
 662   -2     39.151     24.028      4.319
 112   -2     19.379     27.369     -5.225
 140   -2     22.530     31.474     -6.155
  -1   -2     46.384     29.945     19.269
  -1   -2     37.320     34.845      3.782
 137   -2     35.747     22.597     16.655
  -1   -2     47.094      4.894      3.474
  -1   -2     38.427     -6.649    -11.117
 423   -2     45.920     32.614     -1.329
  -1   -2     28.146     35.612      0.098
  -1   -2     49.503      2.958     11.240
 130   -2     52.862     24.442      2.647
 113   -2     44.918     39.057     -2.654
 411   -2     50.294     29.120      5.971
 102   -2     36.911     26.965      6.059
 162   -2     44.240      6.443      9.753
  -1   -2     55.213      9.903     10.440
  15   -2     50.516     11.435      6.466
  -1   -2     63.287     20.277     14.405
 155   -2     25.943     17.367     -4.285
  -1   -2     53.165     22.681     26.464
  -1   -2     31.283     22.622      1.024
  91   -2     39.329      7.574      0.807
 100   -2     30.077      9.398      9.468
 128   -2     33.185     20.391      3.353
  87   -2     24.051     27.839     -5.337
 673   -2     33.515      2.238      8.083
  -1   -2     44.544     -0.676      6.642
 145   -2     28.792     31.440      8.658
 167   -2     25.254     26.023     -0.288
 475   -2     57.685     22.360     -1.511
 142   -2     38.584      6.556     10.652
  -1   -2     30.774     34.673     12.129
 661   -2     35.994     22.540     14.981
  95   -2     39.632     26.457      5.147
 144   -2     43.758     38.511      4.990
  11   -2     47.096     13.747     13.271
  -1   -2     38.755     35.959     15.673
  98   -2     36.631     17.031      7.270
 157   -2     23.196     23.522     -6.676
 191   -2     29.380     10.521      4.639
 172   -2     53.841     28.859     10.090
 165   -2     33.885     15.427      6.019
 141   -2     21.996     14.811     -0.282
 111   -2     27.939     38.636     -1.634
 129   -2     53.059     28.152      4.171
 201   -2     33.390     15.582      0.029
 153   -2     35.852     14.054      6.365
 211   -2     28.946     28.866     11.623
 274   -2     39.064     11.589     21.697
 156   -2     26.985     25.547     -0.561
 391   -2     50.617     29.140     11.603
 198   -2     35.469      5.566      9.800
 221   -2     58.027     24.496     12.200
 193   -2     45.368      0.147      3.596
 117   -2     55.840     23.019     14.888
 125   -2     27.589     21.720      2.783
 674   -2     34.167     22.507      9.709
 190   -2     29.948      7.322      4.376
 174   -2     31.418     31.302      1.067
  -1   -2     44.596     -4.396     10.769
  -1   -2     56.509     19.717      2.491
 189   -2     28.850      5.977     12.797
 692   -2     55.548     29.488     -0.087
 176   -2     37.895      5.850      9.008
 194   -2     22.591     10.817      5.601
 440   -2     46.634     38.340     -0.802
  -1   -2     43.283      6.196      8.802
 160   -2     46.434     34.375      5.285
 672   -2     43.407     11.159      9.245
  -1   -2     47.719     27.225     11.175
  -1   -2     40.047      9.843      8.597
 179   -2     27.099     26.912      7.579
  -1   -2     43.106     10.151     20.501
 178   -2     24.076     24.449     10.656
 187   -2     52.983     36.482      7.596
 265   -2     24.739     25.983      1.348
 182   -2     32.943     -1.299      6.048
  -1   -2     48.552     -5.259      5.051
 456   -2     30.095     25.418     -2.059
  -1   -2     42.464     -3.661      7.359
  -1   -2     43.664     -1.086      0.827
 136   -2     34.189      8.744      9.593
  -1   -2     20.534      9.101     10.271
  -1   -2     29.435      0.199     14.510
 173   -2     24.411     18.876      0.990
 255   -2     36.898     -0.878     18.497
  -1   -2     20.650      4.125      5.554
  -1   -2     47.062      1.390      9.152
  -1   -2     43.493     15.063     19.765
  -1   -2     61.845     19.682     15.595
 197   -2     27.352      6.011     -0.407
 219   -2     21.114     31.727     -2.199
 257   -2     29.681     11.807     11.924
  -1   -2     31.306      2.354      6.713
 220   -2     25.598      0.416     12.184
 183   -2     21.786     31.469     -2.648
  -1   -2     35.582     24.469     17.723
 222   -2     59.674     27.264     10.320
 210   -2     63.166     19.064     13.412
  -1   -2     47.313     10.120      3.594
 192   -2     52.906     27.814     -4.305
 126   -2     50.927     24.505     12.527
 204   -2     39.221      4.969      3.796
 462   -2     54.100     27.626      4.747
  -1   -2     13.648     19.873    -22.935
 230   -2     55.817     29.233      8.100
  -1   -2     34.884      7.046     24.226
 218   -2     25.187     19.684      4.414
 215   -2     28.277     14.995      8.326
 150   -2     30.771     21.480      6.650
 223   -2     28.082     11.211      5.111
 154   -2     28.876     10.027     -3.293
 203   -2     25.604     13.704     -2.748
  -1   -2     40.966     -0.472     10.391
 669   -2     33.527     35.599      7.275
 207   -2     27.268      6.859     -3.377
 262   -2     34.891      5.774     24.914
 195   -2     23.867     22.630     15.355
 177   -2     25.417     39.879     -0.773
  -1   -2     29.123      4.133      4.097
 226   -2     26.954     11.241     13.346
  -1   -2     45.757      2.022      8.658
  -1   -2     34.636     17.886     23.563
 216   -2     25.000     19.950      2.182
  -1   -2     64.434     18.309      5.157
  -1   -2     44.545      6.536      7.767
 233   -2     29.392     24.078     10.792
 202   -2     24.501     28.223      6.740
 535   -2     38.021     13.161     -3.641
 678   -2     44.802     -2.482      9.785
  -1   -2     45.982      5.315      6.950
 214   -2     28.577     -0.875     13.499
  -1   -2     40.647     10.395     -0.367
  -1   -2     53.011     37.148     21.823
  -1   -2     19.034     28.392     20.234
 234   -2     32.624     23.131     13.351
  -1   -2     22.623     14.196      4.354
 107   -2     34.864     -3.917      5.000
  -1   -2     52.666     23.696     13.745
 473   -2     22.566     35.105      2.373
 679   -2     29.218      7.103     17.504
  -1   -2     29.914     10.043     21.441
  -1   -2     44.213     -4.654     10.917
 248   -2     33.213      6.302      8.485
 270   -2     48.359     38.271      5.846
 228   -2     22.963      4.310     -1.094
  -1   -2     36.427     39.520      6.834
 249   -2     60.284     31.573     -0.324
 279   -2     36.944      6.368     21.644
 243   -2     26.120     18.023      5.249
  -1   -2     24.245      2.975      4.532
 683   -2     23.676     16.949      7.112
 186   -2     23.234     34.163      8.583
  -1   -2     34.541     -2.637     13.654
 241   -2     58.201     30.304     13.693
  -1   -2     62.951     29.643     11.862
  -1   -2     37.080      2.662     22.661
 264   -2     48.285     37.898      5.114
 277   -2     24.997      9.534      7.929
 268   -2     12.985      3.005     15.943
  -1   -2     36.773      4.245     27.902
  -1   -2     18.731     31.046      9.388
 238   -2     37.613     16.331      9.709
  -1   -2     38.403      3.524      1.788
  -1   -2     62.834     24.258     10.892
 275   -2     18.225      4.385      2.745
  -1   -2     46.013      9.382     19.784
 702   -2     17.465      3.279      8.991
 605   -2     29.245      4.557     14.941
  -1   -2     39.917     -6.606    -25.289
  -1   -2     33.310      6.655     15.175
 287   -2     59.446     32.094      3.586
 278   -2     62.012     29.969      0.757
  -1   -2     34.252     38.392     16.623
  -1   -2     29.888      3.284      2.381
 283   -2     57.739     33.878      6.411
  -1   -2     62.187     33.373     10.528
 284   -2     21.462      5.598      6.298
 708   -2     55.928     -0.705      4.028
  -1   -2     34.978     11.324      5.551
 289   -2     45.765     38.819      5.609
 296   -2     25.548     13.524      7.688
 308   -2     26.371      5.183     12.434
 281   -2     55.424     32.201     21.316
 574   -2     16.374     28.749      6.526
  -1   -2     38.846     26.101     17.868
 288   -2     13.900      4.936     10.873
  -1   -2     27.025     20.575     13.272
 306   -2     17.890     13.404     18.553
  -1   -2     35.494     15.909      4.979
  -1   -2     39.769     20.015     -3.512
 292   -2     15.794      0.614     16.337
  -1   -2     29.899     13.072     23.036
  -1   -2     41.834     -5.139      2.014
 304   -2     53.059     -3.167     10.208
  -1   -2     25.435      7.030      7.900
  -1   -2     49.984     12.097     16.804
  -1   -2     41.519     42.272    -14.538
 686   -2     19.610      8.922      7.998
 307   -2     28.053     35.782      8.006
 324   -2     46.022     -1.485      9.779
  60   -2     33.738     16.859      5.764
  -1   -2     31.635      0.555     14.732
  -1   -2     32.150      8.098     15.181
  -1   -2     -2.976     22.814      1.286
  -1   -2     40.203     -3.228     16.479
  -1   -2     51.219     10.861      5.354
  -1   -2     42.752      0.537      9.927
  -1   -2     26.965     39.041     20.983
  -1   -2     19.352     21.579     22.554
  -1   -2     33.496     12.864      3.312
 164   -2     56.817     29.079     11.484
  -1   -2     24.172     37.924      8.059
  -1   -2     45.788      5.442     16.342
  -1   -2     55.201     10.387     -4.762
  -1   -2     32.727     13.235      4.614
  -1   -2     39.150      1.216     -1.592
  -1   -2     21.917     -1.500     14.351
  -1   -2     54.307     16.908     -5.046
 235   -2     37.552     -1.092      5.380
  -1   -2     39.950     28.169    -17.187
  -1   -2     39.562     35.152     29.711
  -1   -2     41.593     -4.009     11.096
  -1   -2     54.718      9.750     -8.264
  -1   -2     38.961     32.137     19.717
  -1   -2     26.960      7.781      6.462
 357   -2     17.644     33.606    -13.430
  -1   -2     27.618     21.482      1.349
 344   -2     50.730     30.793      7.531
  -1   -2     33.335     -6.478     -4.806
  27   -2     44.906     23.788     -2.294
  -1   -2     24.985     30.396     16.100
  -1   -2     45.728     35.157     -8.516
  -1   -2     49.762      3.614     30.823
  -1   -2     35.210     -0.894     10.240
  -1   -2     35.093     25.952     -4.803
  -1   -2     45.818     14.308      6.358
  -1   -2     32.427     -4.876      2.430
  -1   -2     49.145      5.709     11.701
  -1   -2     19.543     16.355     -2.901
  -1   -2     36.106      3.867     29.503
  -1   -2     48.478     -7.761     -2.520
  -1   -2     52.752     -8.318     -1.127
  -1   -2     23.891     37.105     23.843
  -1   -2     49.720     10.385     21.605
  -1   -2     36.391     27.638      2.510
  -1   -2     44.441     -1.205    -14.635
  -1   -2     30.493     31.540    -20.986
  -1   -2     44.839     17.410      5.589
  -1   -2     53.753    -11.569    -14.822
  -1   -2     25.074     33.103     -0.393
  -1   -2     50.996     -4.120      9.755
  -1   -2     39.078     -7.453     -8.733
  -1   -2     49.733     -9.734    -18.837
  -1   -2     48.365     -0.603      6.784
  -1   -2     45.835     -5.545      9.007
  -1   -2     27.935     37.334     19.913
  -1   -2     54.074     11.482     15.128
  -1   -2     56.508     -3.778     -0.301
  -1   -2     56.574     12.805      5.694
  -1   -2     40.200      5.617     -2.404
  -1   -2     14.580     19.343      6.616
  62   -2     62.771     13.774      7.224
  -1   -2     12.735     28.122      0.197
  -1   -2     51.755     12.876      4.884
  -1   -2      9.598     22.386     -8.063
 381   -2     61.950     -2.514      3.822
  -1   -2     47.887     19.352      1.336
 388   -2      4.164     22.647     -4.664
  -1   -2     16.660      6.589      0.051
  -1   -2     10.121     32.601    -15.556
  -1   -2     63.554     -7.870    -21.292
  -1   -2     31.811     34.291     -1.987
  45   -2     51.047     28.238      0.415
  -1   -2     64.670     -1.370     -0.842
  -1   -2     54.876      8.256      4.309
 687   -2     40.178     29.814    -11.019
  -1   -2     52.729     12.294      2.643
  -1   -2     36.319     10.909     30.074
 691   -2     40.831     29.922     -5.459
  -1   -2     58.305     -6.080      8.221
 409   -2     43.438     23.791     -2.957
  -1   -2     48.828      1.605      1.976
  -1   -2     50.257     29.385      6.000
 652   -2     49.912     20.787      0.858
 412   -2     28.200     36.638      2.415
  -1   -2     30.129     31.938    -13.439
 405   -2     51.132     22.600      8.160
  -1   -2     32.183     17.581    -13.816
 406   -2     51.503     42.384     -4.957
  -1   -2     52.307     23.376      9.294
 404   -2     38.739     29.200      0.763
 665   -2     45.221     25.134      9.096
  -1   -2     62.682      7.329      9.783
  -1   -2     59.402     -2.019     16.213
  -1   -2     48.280     12.648      1.615
 458   -2     37.569     40.014     -0.259
  -1   -2     26.040    -12.102    -24.229
 418   -2     30.736     28.813     -5.547
 224   -2     24.360     32.791      9.872
 135   -2     27.404     24.315      8.886
  -1   -2     39.086     20.310     -4.656
 413   -2     58.892     16.467     -5.298
 441   -2     52.436     27.970     -1.830
  -1   -2     34.834     33.670     17.896
  -1   -2     49.479     25.437      8.137
 236   -2     39.521     39.149      3.119
  -1   -2     26.091     37.412     12.996
 688   -2     52.491     14.885      6.828
 200   -2     36.330     40.046      6.892
  -1   -2     32.063     28.390     25.498
 425   -2     60.389     41.972      1.905
 421   -2     25.152     18.024    -14.974
 431   -2     32.258     27.244      2.433
  -1   -2     39.063     29.625      3.659
 438   -2     53.144     25.432     -3.910
 435   -2     34.533     24.438     14.720
  -1   -2     65.103     19.818     15.065
  -1   -2     43.411     34.778      5.256
 152   -2     40.012     20.671     17.190
 429   -2     52.117     28.835     -1.831
  -1   -2     15.131     27.999     11.560
  -1   -2     35.132     36.291     24.218
  -1   -2     57.897      6.229      3.495
 132   -2     46.218     31.220      4.886
  -1   -2     22.467     36.500     -0.537
 436   -2     36.154     40.445      1.391
  -1   -2     53.485     39.557     19.160
 451   -2     59.580     -6.869      6.831
  -1   -2     60.178     -5.996      6.460
  -1   -2     52.918      8.790      9.369
  -1   -2     33.094     19.399      8.683
  -1   -2      8.532     33.427     -1.568
  -1   -2     12.823     24.825      9.972
 444   -2     55.370     -2.700      5.247
  -1   -2     40.566     29.288     23.054
  -1   -2     25.508     37.729      5.028
  -1   -2     34.809     -0.934      5.568
  -1   -2     33.270     21.840     -5.466
  -1   -2     27.753     26.565      9.546
  -1   -2      9.699     34.299     -4.554
  -1   -2     20.857     24.781     11.854
 448   -2     52.694     30.879      3.963
  -1   -2     16.248     22.662      2.712
 464   -2     19.550     23.580     -2.049
  -1   -2     36.633     37.753     26.425
  -1   -2     46.100     38.339      1.680
  -1   -2     28.922     10.423      8.798
 466   -2     17.435     16.338      2.127
  -1   -2     58.307      3.816    -18.776
 498   -2     48.978     35.216      5.353
  -1   -2     51.496     34.380     -5.908
  -1   -2     46.394     37.345     -7.416
  -1   -2     56.912     32.972     20.108
 491   -2     50.238     36.008      4.897
 453   -2     28.011     30.512     -0.225
  -1   -2     44.443      9.670     -4.804
  -1   -2     38.678     15.888     18.582
 237   -2     57.062     37.750     -0.401
 470   -2     54.444     30.475     -4.462
  -1   -2     31.039      2.970     15.379
  -1   -2     44.144     18.563     10.957
 482   -2      5.926     12.494      2.928
  -1   -2     21.558     23.444      2.936
 483   -2     16.938     12.500      2.780
  -1   -2     35.006     11.080     -1.175
 714   -2     56.222     30.320     -0.903
  -1   -2     20.804     30.916     26.935
  -1   -2     57.899     28.762      4.601
  -1   -2     37.553     15.931     10.305
  -1   -2     51.932     34.736     -3.765
 454   -2     51.091     33.492      4.329
  -1   -2      8.294      8.436      7.390
 469   -2     48.081     36.493     10.724
  -1   -2     19.175     27.879     31.215
  -1   -2     45.179     13.730     27.172
 472   -2     52.615     37.020      5.526
  -1   -2     42.378     26.153     -0.496
  -1   -2     52.902     32.250      2.908
  -1   -2     56.477     -8.223     -3.348
  -1   -2     47.727     19.545     19.739
  -1   -2     50.129     28.953     12.222
 497   -2     71.007     13.249     -0.884
 499   -2     58.821     36.519     -7.010
  -1   -2     33.070     17.924     -0.613
  -1   -2     29.493     23.497     14.060
  -1   -2     20.853     37.387     13.247
  -1   -2     40.085     22.491     -0.317
  -1   -2     54.194     33.094      6.990
  -1   -2     36.719      0.186    -14.087
  -1   -2      7.566      2.538      5.316
  -1   -2     39.870     38.098      4.602
  -1   -2     28.281     -2.588     -5.333
  -1   -2     49.084     20.617     -1.989
  -1   -2     45.617     34.867     -4.081
  -1   -2     51.699     36.180      3.566
  -1   -2     20.322     26.481     25.075
  -1   -2     34.528     -1.464      5.912
  -1   -2      6.013      9.675     -0.058
  -1   -2     31.399      3.987    -13.734
  -1   -2     54.321     12.968     24.333
  -1   -2     31.485     16.664    -12.574
  -1   -2     72.040     11.480     -4.481
  -1   -2     34.521     23.348     21.118
  -1   -2     59.106     31.443      2.961
  -1   -2     27.928     24.311      7.527
  -1   -2     33.223      0.190     18.808
  -1   -2     47.694     25.690     10.331
  -1   -2     38.026     37.234    -10.076
  -1   -2     44.502     37.492     23.156
  -1   -2     33.445     -5.575    -13.629
 539   -2     54.298     27.847     -3.162
  -1   -2     43.148     20.342     31.312
 513   -2     14.665     27.928     13.717
  -1   -2     37.020     30.997      5.163
 522   -2      2.476     16.875     11.559
  -1   -2     22.528     12.259     19.324
  -1   -2     59.937     38.117      5.721
  -1   -2     40.662    -12.592    -26.487
 399   -2     50.610     10.773     15.739
  -1   -2     26.053     13.005     15.949
  -1   -2     42.736     35.050      9.650
 529   -2     -2.414     18.885      8.403
  -1   -2     33.645     22.206     19.200
  -1   -2     47.533     32.801     21.608
  -1   -2     34.846     42.361    -11.145
  -1   -2     24.207     24.654     20.131
  -1   -2     35.323      6.710     22.171
  -1   -2     17.263     32.659      7.277
  -1   -2     42.083     16.924      8.283
  -1   -2     50.950     18.918     20.834
  -1   -2     43.336      5.298     21.058
  -1   -2     20.238     19.859    -26.845
  -1   -2     17.682     22.082     31.351
  -1   -2     33.455     40.482     -0.629
  -1   -2     40.460     16.531    -10.325
  -1   -2     64.086    -10.524     -2.697
  -1   -2     41.923     16.559     25.603
  -1   -2     42.228     30.759     -8.835
  -1   -2     11.649     28.051    -11.834
  -1   -2      3.932      5.661     11.076
  -1   -2     48.246      1.486      5.291
  -1   -2     53.699      8.184     -0.907
  -1   -2     53.286     12.964      8.078
  -1   -2      5.718      9.238     16.098
  -1   -2     34.818     32.039     18.366
  -1   -2     35.397     16.736     21.190
  -1   -2     40.228     11.229      8.180
  -1   -2     23.811     -3.653    -25.358
  -1   -2     53.151      6.951     -2.597
  -1   -2     58.127     27.757     30.421
  -1   -2     28.868     26.915     -1.902
  -1   -2     48.202     -0.885    -12.404
  -1   -2     28.362      4.233      7.164
  -1   -2     14.982     30.564    -13.930
  -1   -2     26.464     37.420    -12.012
  -1   -2     22.094     31.716     -1.226
  -1   -2     44.412     20.385     28.168
 537   -2     25.415     40.602     -9.918
  -1   -2     23.218     14.129    -11.543
  -1   -2     27.315     39.738      9.582
  -1   -2     43.352     38.739      9.471
  -1   -2     -3.679     26.738     -3.782
  -1   -2     28.825     -0.696     10.101
  -1   -2     11.357     29.034     -5.409
  -1   -2     27.633     -4.871      0.097
  -1   -2     23.422     23.538    -10.634
  -1   -2     35.262     25.953    -21.264
 590   -2     28.729     41.423    -11.714
  -1   -2     51.383     -0.268     17.607
  -1   -2     38.749     38.018    -11.039
  -1   -2     19.776     20.334     11.333
  -1   -2     27.894      2.115     19.886
  -1   -2     25.172     28.494     -3.846
  -1   -2     63.143     40.044     -4.941
  -1   -2     49.499     39.713      4.248
  -1   -2     17.155     33.717    -25.888
  -1   -2     25.539     37.743    -22.657
  -1   -2     62.288     24.942     20.475
  -1   -2     26.228     -2.043     17.226
  -1   -2     48.187     -0.683     -7.432
  -1   -2      5.575     35.463     28.579
  -1   -2     17.018     23.589    -12.865
  -1   -2     35.350     33.908     -0.236
  -1   -2     23.250     30.351     31.072
  -1   -2     66.802     10.165    -21.551
  -1   -2     30.537     -6.953      7.262
  -1   -2     26.233      2.790     30.424
  -1   -2     68.080     18.297     11.476
  -1   -2     71.276     24.817    -13.915
  -1   -2     38.867     38.424    -18.002
  -1   -2     28.897      7.351    -15.318
  -1   -2     30.290     39.360    -12.121
  -1   -2     65.281     35.643     -5.816
  -1   -2     50.189     11.845     29.737
  -1   -2     21.673      9.096     -4.273
  -1   -2     29.833     33.947    -11.786
  -1   -2     67.250     16.522    -25.946
  -1   -2     15.436     15.404     21.982
   3   -2     62.853      6.314     17.788
  -1   -2     39.845     -5.504      1.747
  -1   -2     33.775     38.294    -20.894
  -1   -2     63.984     11.845     16.807
  -1   -2     67.150     40.949      0.384
  -1   -2     13.645     13.907     15.408
  -1   -2     24.071     40.025    -21.603
  -1   -2     46.114     29.264      4.256
  -1   -2     58.078     34.300     12.728
  -1   -2     54.914     40.158     -9.223
  -1   -2     24.450      1.504     27.403
  -1   -2     24.080     40.210     -8.813
  -1   -2      1.786     31.226     20.720
  -1   -2      0.283      0.277     11.165
  -1   -2     13.782     32.287    -15.862
  -1   -2     49.948    -10.909    -10.613
  -1   -2     59.768     -3.717     18.562
  -1   -2     60.723     37.712     -1.357
  -1   -2     15.830     28.418     -0.553
  -1   -2     58.618     -9.637     -2.964
  -1   -2     11.850      0.212     22.213
  -1   -2     26.283     18.652     17.500
  -1   -2     -5.308      7.676     -0.800
 648   -2     -5.217     15.778     -2.537
  -1   -2     70.819     13.199     -9.663
  -1   -2     72.837     21.642     -1.498
  -1   -2      0.346     32.187     -7.313
  -1   -2     56.444    -11.806     -2.591
  -1   -2     16.394      7.936     20.358
  -1   -2     21.062      7.988     -2.535
 650   -2     10.971    -14.798    -21.294
  -1   -2     62.821     14.084     -5.207
  -1   -2     -3.098     22.018    -20.319
   5   -2     40.989     21.312     -4.104
  18   -2     41.413     23.252     15.607
 696   -2     55.659     15.490      8.428
  72   -2     28.018     33.817      5.274
 698   -2     44.705     14.270     -1.733
  83   -2     38.250     10.193      4.817
 108   -2     29.942     40.073      2.107
 159   -2     44.748     28.384      8.803
  58   -2     44.464     11.044      4.282
  85   -2     42.316     25.547      8.606
 103   -2     34.657     15.422     12.968
  92   -2     24.593     22.529     -2.401
  70   -2     29.555     30.472      1.714
 122   -2     42.908     18.267     11.493
 121   -2     43.176     33.571      4.494
 181   -2     34.935      5.066      7.206
 675   -2     38.728     40.566      4.699
 184   -2     40.267      5.929      1.012
 175   -2     40.157      5.228      3.750
 273   -2     33.138     -1.713     13.093
 251   -2     33.192     -1.357     11.744
 459   -2     19.846     25.836     15.649
 259   -2     28.194     11.252     11.773
 320   -2     21.118      0.634      3.751
  71   -2     56.075     10.795     20.310
 330   -2     20.171     10.122      7.744
 314   -2     47.983     13.194      0.870
 408   -2     58.388      1.126      1.476
  33   -2     39.144     23.002     -0.173
 403   -2     48.080     23.222      1.024
 394   -2     41.919     27.688      4.631
 690   -2     42.207     34.416     -1.757
 433   -2     37.446     31.437      7.485
 490   -2     49.177     29.243      6.227
 460   -2     53.416     31.351      2.840
 680   -2     26.729     27.128     -2.386
 225   -2     54.841     29.259      8.982
  38   -2     50.431     17.525     16.618
 250   -2     19.288     25.803     17.647
  57   -2     37.637     39.390    -13.311
  65   -2     41.669      8.378      4.077
 667   -2     24.385     26.444     12.573
 149   -2     28.155     20.759      7.231
 676   -2     34.438     16.424      8.508
 681   -2     19.740     17.517      0.890
 703   -2     28.245     24.525      7.721
 697   -2     55.464     17.906      5.565
 704   -2     35.130     15.160      8.420
  16   -2     46.668     28.232      6.227
 118   -2     43.118     13.684     -2.618
 684   -2     20.945      1.798      6.902
 706   -2     55.227      3.847     13.364
 710   -2     21.941     40.387      3.989
