687
   1    55.664    14.618    10.983  334  841  569  807
   2    46.950    18.112     9.240  271  716  482  717
   3    48.206    21.386    -1.095  225  535  384  640
   4    58.656     9.675    15.025  434 1038  676  952
   5    56.329    11.764    13.216  377  947  626  888
   6    61.314     2.399    -4.160  581 1059  684 1223
   7    49.596    16.408    -3.561  308  653  453  793
   8    38.508    29.436    -1.296  109  321  214  395
   9    46.672    19.045    -2.682  263  586  417  715
  10    45.557    22.319    -3.771  211  490  347  621
  11    49.100    14.117     4.758  339  795  523  835
  12    43.192    30.607    -2.483  101  276  200  341
  13    45.389    17.459    12.673  277  776  506  730
  14    49.775    16.449     3.003  303  704  480  772
  15    37.810    36.570    -0.361   47  149  100  134
  16    47.736    24.972     4.413  173  486  354  519
  17    51.251    11.504     0.352  390  827  546  921
  18    40.921    19.465     0.488  247  604  416  703
  19    53.780    19.710    15.082  245  724  499  651
  20    58.049     6.016     0.673  519  981  647 1098
  21    34.648    33.390     9.150   60  292  195  221
  22    37.821    31.627     7.566   84  332  222  275
  23    23.358    27.630     0.869  121  390  230  475
  24    46.598    21.116     0.198  228  550  396  650
  25    43.587    25.428    -4.721  170  397  282  535
  26    46.432     8.938     2.318  443  924  599 1006
  27    46.844    17.634     6.982  280  707  477  739
  28    25.000    25.135    -4.100  163  419  251  570
  29    43.977    18.469     4.055  266  668  450  721
  30    27.159    40.175     2.157    1   97   57   39
  31    36.704    25.089     6.483  165  499  336  526
  32    45.055    20.199     4.694  235  621  430  671
  33    54.102    11.583     7.976  385  895  604  903
  34    24.981    19.991    -0.004  229  589  373  707
  35    34.906    30.358    -1.767   97  289  192  371
  36    56.086    19.344     7.059  260  664  468  680
  37    50.995    10.173     2.058  424  877  582  959
  38    35.508    29.612    -6.975  108  261  173  411
  39    46.362     9.540     5.893  429  945  608  978
  40    53.438    20.569     8.477  233  644  459  638
  41    22.440    33.229     0.765   61  232  131  266
  42    48.947    10.652     0.126  407  853  560  953
  43    40.313    11.565    -6.808  376  761  489  944
  44    45.614    13.098    14.185  351  919  598  852
  45    26.199    37.715     0.099   23  123   76  114
  46    26.698    13.772    -0.217  330  766  463  872
  47    35.933    25.282     6.133  160  495  330  523
  48    45.293    27.666     8.830  133  451  320  417
  49    45.364    14.668    12.490  323  859  554  816
  50    27.084    17.607     0.682  270  669  424  769
  51    33.845    19.494    -0.903  242  593  390  713
  52    38.212    19.345    -1.251  249  592  404  714
  53    36.891    20.879     1.335  222  575  387  668
  54    55.927    19.714     7.882  253  660  467  665
  55    35.993    21.116    -4.510  220  517  346  674
  56    47.718    22.393     5.917  208  568  410  595
  57    32.173    12.929     1.712  348  808  494  895
  58    55.516    -3.468    -0.349  689 1299  764 1386
  59    58.545    15.601    11.478  317  813  562  774
  60    32.392    22.053     0.319  205  532  350  636
  61    34.535    27.093     0.258  138  394  261  481
  62    34.460    19.747     3.702  234  626  419  692
  63    32.897    31.951     6.356   77  313  205  276
  64    31.899    37.296    11.818   21  205  135   85
  65    36.945    33.252     3.309   67  243  165  238
  66    45.143     3.189     7.263  564 1198  703 1203
  67    39.953    22.399     3.998  203  549  380  610
  68    33.259    23.821     4.283  176  518  339  575
  69    40.758    22.476     5.018  202  557  388  606
  70    40.034    26.127     2.557  154  442  300  498
  71    51.810    15.236    17.198  314  879  591  783
  72    49.808    21.375    -3.416  230  513  377  644
  73    57.123    17.269     8.189  291  732  510  734
  74    35.071    25.507     5.706  155  485  323  515
  75    41.414     5.018     9.325  531 1161  679 1144
  76    43.952     1.828     6.807  580 1237  709 1245
  77    37.287    17.063    17.185  275  842  521  749
  78    34.428    18.451     6.059  256  686  444  726
  79    34.106    33.184     9.034   63  298  197  227
  80    44.502    26.981    -2.352  151  377  266  477
  81    58.147     7.575    10.956  474 1066  683 1022
  82    36.159    26.657    15.657  134  540  362  448
  83    41.059    24.428    24.233  161  683  458  489
  84    48.141     0.802     0.276  602 1192  706 1270
  85    22.093    28.374    -6.633  114  309  172  472
  86    38.181    29.206     3.261  107  368  245  390
  87    33.289    27.354    13.508  124  498  329  427
  88    52.785    -6.765    -4.387  751 1345  776 1470
  89    50.684    23.480     2.612  199  506  376  571
  90    29.136     3.929     7.222  541 1187  660 1193
  91    49.344     2.571     2.718  573 1157  698 1221
  92    33.895    34.813     9.873   53  252  166  165
  93    47.672     2.482     1.656  575 1145  688 1226
  94    32.555    15.905     4.698  296  750  466  804
  95    43.606    22.542    13.915  197  642  440  577
  96    49.728     5.488    10.829  527 1156  699 1119
  97    37.347    10.744     7.368  389  928  574  951
  98    58.780    32.063     8.945   89  330  267  223
  99    28.694    28.108     8.776  110  443  281  422
 100    59.270    16.848    11.177  297  772  535  742
 101    50.900     1.715     3.362  588 1196  708 1247
 102    39.151    24.028     4.319  178  508  353  563
 103    19.379    27.369    -5.225  127  359  199  507
 104    22.530    31.474    -6.155   87  226  127  369
 105    46.384    29.945    19.269   94  474  345  277
 106    37.320    34.845     3.782   57  206  148  183
 107    35.747    22.597    16.655  189  670  439  579
 108    47.094     4.894     3.474  537 1078  659 1151
 109    38.427    -6.649   -11.117  739 1293  726 1473
 110    45.920    32.614    -1.329   86  231  170  257
 111    28.146    35.612     0.098   49  177  105  185
 112    49.503     2.958    11.240  568 1245  729 1204
 113    52.862    24.442     2.647  184  483  361  534
 114    44.918    39.057    -2.654   25   95   70   57
 115    50.294    29.120     5.971  116  388  287  365
 116    36.911    26.965     6.059  137  448  298  464
 117    44.240     6.443     9.753  493 1107  669 1082
 118    55.213     9.903    10.440  428  968  635  955
 119    50.516    11.435     6.466  388  886  587  912
 120    63.287    20.277    14.405  244  696  507  619
 121    25.943    17.367    -4.285  274  624  394  786
 122    53.165    22.681    26.464  194  749  513  532
 123    31.283    22.622     1.024  196  525  340  618
 124    39.329     7.574     0.807  461  957  597 1053
 125    30.077     9.398     9.468  412  997  600  996
 126    33.185    20.391     3.353  224  606  402  684
 127    24.051    27.839    -5.337  126  338  196  485
 128    33.515     2.238     8.083  570 1248  702 1238
 129    44.544    -0.676     6.642  626 1304  749 1319
 130    28.792    31.440     8.658   79  356  218  297
 131    25.254    26.023    -0.288  145  428  258  531
 132    57.685    22.360    -1.511  218  503  385  604
 133    38.584     6.556    10.652  482 1122  655 1081
 134    30.774    34.673    12.129   50  282  176  164
 135    35.994    22.540    14.981  192  652  431  585
 136    39.632    26.457     5.147  147  454  306  480
 137    43.758    38.511     4.990   22  138  106   51
 138    47.096    13.747    13.271  341  888  579  834
 139    38.755    35.959    15.673   43  273  193   99
 140    36.631    17.031     7.270  281  738  470  767
 141    23.196    23.522    -6.676  181  441  262  617
 142    29.380    10.521     4.639  387  906  543  969
 143    53.841    28.859    10.090  122  430  325  342
 144    33.885    15.427     6.019  306  777  484  817
 145    21.996    14.811    -0.282  309  739  446  847
 146    27.939    38.636    -1.634   17  107   62   92
 147    53.059    28.152     4.171  136  395  297  400
 148    33.390    15.582     0.029  305  709  455  820
 149    35.852    14.054     6.365  328  823  509  844
 150    28.946    28.866    11.623  100  447  283  391
 151    39.064    11.589    21.697  363 1076  638  897
 152    26.985    25.547    -0.561  153  437  274  542
 153    50.617    29.140    11.603  111  436  322  330
 154    35.469     5.566     9.800  510 1155  663 1129
 155    58.027    24.496    12.200  180  560  427  500
 156    45.368     0.147     3.596  614 1251  723 1295
 157    55.840    23.019    14.888  200  627  460  546
 158    27.589    21.720     2.783  204  570  360  645
 159    34.167    22.507     9.709  193  603  403  602
 160    29.948     7.322     4.376  458 1014  603 1065
 161    31.418    31.302     1.067   88  285  184  325
 162    44.596    -4.396    10.769  701 1462  798 1407
 163    56.509    19.717     2.491  258  608  447  677
 164    28.850     5.977    12.797  487 1186  658 1117
 165    55.548    29.488    -0.087  125  329  252  361
 166    37.895     5.850     9.008  502 1123  657 1118
 167    22.591    10.817     5.601  371  913  530  962
 168    46.634    38.340    -0.802   36  110   91   72
 169    43.283     6.196     8.802  496 1103  664 1094
 170    46.434    34.375     5.285   62  234  175  175
 171    43.407    11.159     9.245  380  932  596  926
 172    47.719    27.225    11.175  139  479  352  418
 173    40.047     9.843     8.597  414  964  606  972
 174    27.099    26.912     7.579  130  465  292  474
 175    43.106    10.151    20.501  399 1113  671  946
 176    24.076    24.449    10.656  157  558  351  552
 177    52.983    36.482     7.596   51  200  161   89
 178    24.739    25.983     1.348  143  440  270  527
 179    32.943    -1.299     6.048  632 1327  732 1345
 180    48.552    -5.259     5.051  720 1414  792 1425
 181    30.095    25.418    -2.059  159  429  273  548
 182    42.464    -3.661     7.359  686 1393  777 1392
 183    43.664    -1.086     0.827  634 1262  722 1336
 184    34.189     8.744     9.593  433 1024  615 1010
 185    20.534     9.101    10.271  409 1034  586 1011
 186    29.435     0.199    14.510  601 1367  751 1297
 187    24.411    18.876     0.990  243  634  395  737
 188    36.898    -0.878    18.497  629 1453  784 1320
 189    20.650     4.125     5.554  535 1167  631 1194
 190    47.062     1.390     9.152  590 1274  738 1252
 191    43.493    15.063    19.765  312  921  590  798
 192    61.845    19.682    15.595  254  728  518  639
 193    27.352     6.011    -0.407  489 1001  589 1137
 194    21.114    31.727    -2.199   81  242  142  336
 195    29.681    11.807    11.924  359  951  566  913
 196    31.306     2.354     6.713  567 1232  686 1236
 197    25.598     0.416    12.184  594 1344  725 1293
 198    21.786    31.469    -2.648   83  247  146  348
 199    35.582    24.469    17.723  162  618  418  516
 200    59.674    27.264    10.320  149  470  371  401
 201    63.166    19.064    13.412  267  723  520  664
 202    47.313    10.120     3.594  418  898  584  965
 203    52.906    27.814    -4.305  146  344  255  438
 204    50.927    24.505    12.527  175  566  420  509
 205    39.221     4.969     3.796  533 1090  641 1155
 206    54.100    27.626     4.747  142  416  313  416
 207    13.648    19.873   -22.935  236  406  221  757
 208    55.817    29.233     8.100  117  396  304  331
 209    34.884     7.046    24.226  462 1282  713 1043
 210    25.187    19.684     4.414  231  643  405  706
 211    28.277    14.995     8.326  307  819  490  827
 212    30.771    21.480     6.650  207  605  393  643
 213    28.082    11.211     5.111  369  894  532  948
 214    28.876    10.027    -3.293  398  852  508  994
 215    25.604    13.704    -2.748  332  745  457  882
 216    40.966    -0.472    10.391  622 1341  758 1313
 217    33.527    35.599     7.275   46  217  145  153
 218    27.268     6.859    -3.377  466  940  557 1106
 219    34.891     5.774    24.914  495 1325  736 1096
 220    23.867    22.630    15.355  177  658  411  599
 221    25.417    39.879    -0.773    5   84   49   59
 222    29.123     4.133     4.097  538 1131  637 1188
 223    26.954    11.241    13.346  364  979  580  937
 224    45.757     2.022     8.658  579 1249  724 1235
 225    34.636    17.886    23.563  255  875  540  712
 226    25.000    19.950     2.182  227  609  383  701
 227    64.434    18.309     5.157  286  675  491  698
 228    44.545     6.536     7.767  490 1082  649 1075
 229    29.392    24.078    10.792  167  572  369  558
 230    24.501    28.223     6.740  106  426  254  433
 231    38.021    13.161    -3.641  353  744  475  889
 232    44.802    -2.482     9.785  662 1384  780 1365
 233    45.982     5.315     6.950  528 1109  674 1133
 234    28.577    -0.875    13.499  620 1397  756 1328
 235    40.647    10.395    -0.367  405  860  537  970
 236    53.011    37.148    21.823   30  288  233   15
 237    19.034    28.392    20.234   92  534  321  396
 238    32.624    23.131    13.351  179  620  409  574
 239    22.623    14.196     4.354  315  798  472  858
 240    34.864    -3.917     5.000  687 1385  763 1403
 241    52.666    23.696    13.745  188  597  438  533
 242    22.566    35.105     2.373   48  197  114  206
 243    29.218     7.103    17.504  457 1208  672 1054
 244    29.914    10.043    21.441  391 1147  646  957
 245    44.213    -4.654    10.917  705 1467  802 1415
 246    33.213     6.302     8.485  484 1104  636 1104
 247    48.359    38.271     5.846   28  153  119   46
 248    22.963     4.310    -1.094  534 1062  607 1196
 249    36.427    39.520     6.834   10  125   90   27
 250    60.284    31.573    -0.324   98  260  225  264
 251    36.944     6.368    21.644  480 1269  711 1071
 252    26.120    18.023     5.249  257  693  436  753
 253    24.245     2.975     4.532  557 1195  648 1224
 254    23.676    16.949     7.112  273  746  454  780
 255    23.234    34.163     8.583   54  263  157  216
 256    34.541    -2.637    13.654  661 1451  783 1372
 257    58.201    30.304    13.693  103  417  328  262
 258    62.951    29.643    11.862  113  423  338  287
 259    37.080     2.662    22.661  565 1380  765 1209
 260    48.285    37.898     5.114   37  156  122   61
 261    24.997     9.534     7.929  401  976  573  999
 262    12.985     3.005    15.943  547 1333  693 1222
 263    36.773     4.245    27.902  539 1396  766 1153
 264    18.731    31.046     9.388   75  372  209  327
 265    37.613    16.331     9.709  288  784  495  779
 266    38.403     3.524     1.788  556 1119  651 1201
 267    62.834    24.258    10.892  191  553  433  504
 268    18.225     4.385     2.745  521 1121  614 1190
 269    46.013     9.382    19.784  427 1126  681  966
 270    17.465     3.279     8.991  546 1242  656 1216
 271    29.245     4.557    14.941  529 1259  695 1165
 272    39.917    -6.606   -25.289  729 1136  666 1474
 273    33.310     6.655    15.175  471 1188  673 1074
 274    59.446    32.094     3.586   93  281  235  239
 275    62.012    29.969     0.757  119  323  264  323
 276    34.252    38.392    16.623   12  211  143   25
 277    29.888     3.284     2.381  553 1143  645 1212
 278    57.739    33.878     6.411   72  250  213  169
 279    62.187    33.373    10.528   78  307  256  171
 280    21.462     5.598     6.298  492 1118  619 1146
 281    55.928    -0.705     4.028  635 1271  755 1316
 282    34.978    11.324     5.551  370  900  541  934
 283    45.765    38.819     5.609   20  133  109   35
 284    25.548    13.524     7.688  329  856  505  871
 285    26.371     5.183    12.434  508 1214  668 1150
 286    55.424    32.201    21.316   80  431  333  178
 287    16.374    28.749     6.526   95  405  228  425
 288    38.846    26.101    17.868  140  577  391  456
 289    13.900     4.936    10.873  497 1219  632 1170
 290    27.025    20.575    13.272  210  694  437  660
 291    17.890    13.404    18.553  316  978  555  862
 292    35.494    15.909     4.979  299  754  473  801
 293    39.769    20.015    -3.512  241  546  379  694
 294    15.794     0.614    16.337  584 1399  727 1287
 295    29.899    13.072    23.036  335 1049  613  856
 296    41.834    -5.139     2.014  714 1379  770 1432
 297    53.059    -3.167    10.208  682 1406  794 1380
 298    25.435     7.030     7.900  459 1079  616 1080
 299    49.984    12.097    16.804  365  972  629  881
 300    41.519    42.272   -14.538    9   12   21    2
 301    19.610     8.922     7.998  415 1009  572 1020
 302    28.053    35.782     8.006   44  220  137  145
 303    46.022    -1.485     9.779  647 1348  771 1340
 304    33.738    16.859     5.764  278  727  462  782
 305    31.635     0.555    14.732  597 1360  748 1277
 306    32.150     8.098    15.181  442 1138  640 1024
 307    -2.976    22.814     1.286  166  538  279  653
 308    40.203    -3.228    16.479  675 1498  803 1383
 309    51.219    10.861     5.354  404  893  593  928
 310    42.752     0.537     9.927  606 1301  744 1274
 311    26.965    39.041    20.983    0  236  141    0
 312    19.352    21.579    22.554  185  768  449  615
 313    33.496    12.864     3.312  349  829  504  896
 314    56.817    29.079    11.484  118  438  334  328
 315    24.172    37.924     8.059   13  169   97   88
 316    45.788     5.442    16.342  522 1227  715 1116
 317    55.201    10.387    -4.762  426  797  545  961
 318    32.727    13.235     4.614  344  834  503  877
 319    39.150     1.216    -1.592  589 1154  675 1267
 320    21.917    -1.500    14.351  630 1437  757 1351
 321    54.307    16.908    -5.046  298  623  448  775
 322    37.552    -1.092     5.380  628 1323  731 1334
 323    39.950    28.169   -17.187  141  229  156  482
 324    39.562    35.152    29.711   38  409  294   74
 325    41.593    -4.009    11.096  696 1452  791 1401
 326    54.718     9.750    -8.264  441  792  524  988
 327    38.961    32.137    19.717   68  425  288  220
 328    26.960     7.781     6.462  448 1027  602 1047
 329    17.644    33.606   -13.430   65  134   68  310
 330    27.618    21.482     1.349  209  563  357  659
 331    50.730    30.793     7.531   96  354  272  283
 332    33.335    -6.478    -4.806  736 1350  747 1471
 333    44.906    23.788    -2.294  190  463  326  589
 334    24.985    30.396    16.100   85  449  277  296
 335    45.728    35.157    -8.516   66  128   99  197
 336    49.762     3.614    30.823  560 1432  806 1161
 337    35.210    -0.894    10.240  624 1353  753 1331
 338    35.093    25.952    -4.803  164  383  248  525
 339    45.818    14.308     6.358  331  822  517  829
 340    32.427    -4.876     2.430  703 1389  759 1427
 341    49.145     5.709    11.701  516 1163  701 1111
 342    19.543    16.355    -2.901  283  674  413  823
 343    36.106     3.867    29.503  550 1429  778 1168
 344    48.478    -7.761    -2.520  768 1405  789 1490
 345    52.752    -8.318    -1.127  780 1439  801 1507
 346    23.891    37.105    23.843    8  318  181   68
 347    49.720    10.385    21.605  403 1120  680  927
 348    36.391    27.638     2.510  132  391  276  455
 349    44.441    -1.205   -14.635  641 1067  644 1344
 350    30.493    31.540   -20.986   99  129   83  386
 351    44.839    17.410     5.589  282  699  476  748
 352    53.753   -11.569   -14.822  819 1369  787 1556
 353    25.074    33.103    -0.393   64  224  138  269
 354    50.996    -4.120     9.755  702 1430  799 1402
 355    39.078    -7.453    -8.733  756 1339  750 1493
 356    49.733    -9.734   -18.837  800 1297  745 1526
 357    48.365    -0.603     6.784  636 1298  754 1302
 358    45.835    -5.545     9.007  728 1463  804 1443
 359    27.935    37.334    19.913   14  264  164   54
 360    54.074    11.482    15.128  379  974  633  901
 361    56.508    -3.778    -0.301  700 1296  773 1388
 362    56.574    12.805     5.694  366  850  563  865
 363    40.200     5.617    -2.404  511  987  605 1149
 364    14.580    19.343     6.616  217  679  399  727
 365    62.771    13.774     7.224  358  818  577  832
 366    12.735    28.122     0.197  102  385  206  468
 367    51.755    12.876     4.884  362  828  558  861
 368     9.598    22.386    -8.063  187  461  257  672
 369    61.950    -2.514     3.822  667 1330  781 1358
 370    47.887    19.352     1.336  261  613  426  691
 371     4.164    22.647    -4.664  183  482  249  661
 372    16.660     6.589     0.051  469  984  561 1125
 373    10.121    32.601   -15.556   73  137   71  353
 374    63.554    -7.870   -21.292  771 1200  741 1501
 375    31.811    34.291    -1.987   -1  192  118  228
 376    51.047    28.238     0.415   -1  370  278  414
 377    64.670    -1.370    -0.842  654 1234   -1 1332
 378    54.876     8.256     4.309   -1  960  628 1014
 379    40.178    29.814   -11.019   -1  233  159  410
 380    52.729    12.294     2.643   -1  826  549  891
 381    36.319    10.909    30.074   -1 1222  697  906
 382    40.831    29.922    -5.459   -1  270  188  389
 383    58.305    -6.080     8.221  746 1465   -1 1452
 384    43.438    23.791    -2.957   -1  457  319  581
 385    48.828     1.605     1.976   -1 1180  705 1250
 386    50.257    29.385     6.000   -1  381  286  344
 387    49.912    20.787     0.858   -1  567  414  654
 388    28.200    36.638     2.415   -1  168   96  138
 389    30.129    31.938   -13.439   -1  176  102  358
 390    51.132    22.600     8.160   -1  581  425  582
 391    32.183    17.581   -13.816   -1  536  349  797
 392    51.503    42.384    -4.957    2   41   43   -1
 393    52.307    23.376     9.294   -1  569  423  553
 394    38.739    29.200     0.763   -1  348  229  398
 395    45.221    25.134     9.096   -1  521  374  506
 396    62.682     7.329     9.783   -1 1056  691 1027
 397    59.402    -2.019    16.213  664 1431   -1 1347
 398    48.280    12.648     1.615   -1  804  529  886
 399    37.569    40.014    -0.259   -1   86   61   34
 400    26.040   -12.102   -24.229   -1 1326  714 1572
 401    30.736    28.813    -5.547   -1  302  191  444
 402    24.360    32.791     9.872   -1  319  189  248
 403    27.404    24.315     8.886   -1  544  348  557
 404    39.086    20.310    -4.656   -1  539  364  688
 405    58.892    16.467    -5.298   -1  631  461  781
 406    52.436    27.970    -1.830   -1  362  269  423
 407    34.834    33.670    17.896   -1  366  238  176
 408    49.479    25.437     8.137   -1  501  368  490
 409    39.521    39.149     3.119   -1  113   86   45
 410    26.091    37.412    12.996   -1  209  126   86
 411    52.491    14.885     6.828   -1  791  527  811
 412    36.330    40.046     6.892   -1  117   82   12
 413    32.063    28.390    25.498   -1  580  381  350
 414    60.389    41.972     1.905    7   62   67   -1
 415    25.152    18.024   -14.974   -1  515  318  787
 416    32.258    27.244     2.433   -1  408  265  470
 417    39.063    29.625     3.659   -1  364  240  375
 418    53.144    25.432    -3.910   -1  402  301  521
 419    34.533    24.438    14.720   -1  591  398  530
 420    65.103    19.818    15.065   -1  711  522  632
 421    43.411    34.778     5.256   -1  223  160  167
 422    40.012    20.671    17.190   -1  720  471  630
 423    52.117    28.835    -1.831   -1  333  247  397
 424    15.131    27.999    11.560   -1  476  268  442
 425    35.132    36.291    24.218   -1  345  223   67
 426    57.897     6.229     3.495   -1 1020  661 1084
 427    46.218    31.220     4.886   -1  320  231  282
 428    22.467    36.500    -0.537   -1  150   84  163
 429    36.154    40.445     1.391   -1   87   59   16
 430    53.485    39.557    19.160   11  201  168   -1
 431    59.580    -6.869     6.831  762 1470   -1 1466
 432    60.178    -5.996     6.460  744 1442   -1 1448
 433    52.918     8.790     9.369   -1 1000  643  993
 434    33.094    19.399     8.683   -1  685  441  695
 435     8.532    33.427    -1.568   56  207   -1  292
 436    12.823    24.825     9.972   -1  545  310  556
 437    55.370    -2.700     5.247   -1 1337  779 1368
 438    40.566    29.288    23.054   -1  528  367  300
 439    25.508    37.729     5.028   -1  160   92   98
 440    34.809    -0.934     5.568   -1 1312  728 1333
 441    33.270    21.840    -5.466   -1  493  317  655
 442    27.753    26.565     9.546   -1  491  303  483
 443     9.699    34.299    -4.554   55  179   -1  267
 444    20.857    24.781    11.854   -1  565  342  538
 445    52.694    30.879     3.963   -1  324  246  289
 446    16.248    22.662     2.712   -1  543  316  627
 447    19.550    23.580    -2.049   -1  477  285  611
 448    36.633    37.753    26.425   -1  314  212    9
 449    46.100    38.339     1.680   -1  121   95   66
 450    28.922    10.423     8.798   -1  961  570  964
 451    17.435    16.338     2.127   -1  713  429  809
 452    58.307     3.816   -18.776   -1  862  581 1200
 453    48.978    35.216     5.353   -1  210  163  140
 454    51.496    34.380    -5.908   -1  167  129  212
 455    46.394    37.345    -7.416   -1  104   78  117
 456    56.912    32.972    20.108   -1  393  308  148
 457    50.238    36.008     4.897   -1  193  154  112
 458    28.011    30.512    -0.225   -1  299  180  372
 459    44.443     9.670    -4.804   -1  840  531  995
 460    38.678    15.888    18.582   -1  884  559  771
 461    57.062    37.750    -0.401   -1  122  113   73
 462    54.444    30.475    -4.462   -1  257  210  332
 463    31.039     2.970    15.379   -1 1311  716 1208
 464    44.144    18.563    10.957   -1  718  479  708
 465     5.926    12.494     2.928  333  855   -1  929
 466    21.558    23.444     2.936   -1  523  312  607
 467    16.938    12.500     2.780   -1  847  481  918
 468    35.006    11.080    -1.175   -1  833  512  950
 469    56.222    30.320    -0.903   -1  296  237  324
 470    20.804    30.916    26.935   -1  520  314  261
 471    57.899    28.762     4.601   -1  384  299  370
 472    37.553    15.931    10.305   -1  799  502  790
 473    51.932    34.736    -3.765   -1  172  136  190
 474    51.091    33.492     4.329   -1  245  202  207
 475     8.294     8.436     7.390   -1 1036  552 1042
 476    48.081    36.493    10.724   -1  219  167   87
 477    19.175    27.879    31.215   -1  661  397  377
 478    45.179    13.730    27.172   -1 1057  650  818
 479    52.615    37.020     5.526   -1  180  144   81
 480    42.378    26.153    -0.496   -1  418  289  505
 481    52.902    32.250     2.908   -1  274  217  245
 482    56.477    -8.223    -3.348  783 1400   -1 1498
 483    47.727    19.545    19.739   -1  783  515  648
 484    50.129    28.953    12.222   -1  444  327  338
 485    71.007    13.249    -0.884   -1  758  553  846
 486    58.821    36.519    -7.010   -1  114  108  122
 487    33.070    17.924    -0.613   -1  646  422  760
 488    29.493    23.497    14.060   -1  614  400  567
 489    20.853    37.387    13.247   -1  221  121   91
 490    40.085    22.491    -0.317   -1  511  356  614
 491    54.194    33.094     6.990   -1  279  226  203
 492    36.719     0.186   -14.087   -1 1030  622 1307
 493     7.566     2.538     5.316   -1 1235  630 1248
 494    39.870    38.098     4.602   -1  147  101   69
 495    28.281    -2.588    -5.333   -1 1253  690 1376
 496    49.084    20.617    -1.989   -1  552  392  667
 497    45.617    34.867    -4.081   -1  166  123  198
 498    51.699    36.180     3.566   -1  188  149  109
 499    20.322    26.481    25.075   -1  639  389  445
 500    34.528    -1.464     5.912   -1 1334  735 1349
 501     6.013     9.675    -0.058  383  902   -1 1018
 502    31.399     3.987   -13.734   -1  918  547 1206
 503    54.321    12.968    24.333   -1 1040  670  837
 504    31.485    16.664   -12.574   -1  576  370  815
 505    72.040    11.480    -4.481   -1  775  565  911
 506    34.521    23.348    21.118   -1  691  445  541
 507    59.106    31.443     2.961   -1  295  244  259
 508    27.928    24.311     7.527   -1  531  344  561
 509    33.223     0.190    18.808   -1 1425  768 1296
 510    47.694    25.690    10.331   -1  512  375  484
 511    38.026    37.234   -10.076   -1   92   60  149
 512    44.502    37.492    23.156   -1  294  211   20
 513    33.445    -5.575   -13.629   -1 1243  700 1449
 514    54.298    27.847    -3.162   -1  360  263  430
 515    43.148    20.342    31.312   -1  873  567  605
 516    14.665    27.928    13.717   -1  494  284  437
 517    37.020    30.997     5.163   -1  334  219  305
 518     2.476    16.875    11.559  250  812  442   -1
 519    22.528    12.259    19.324   -1 1039  588  892
 520    59.937    38.117     5.721   -1  155  140   31
 521    40.662   -12.592   -26.487   -1 1307  733 1579
 522    50.610    10.773    15.739   -1 1013  642  920
 523    26.053    13.005    15.949   -1  959  564  869
 524    42.736    35.050     9.650   -1  249  174  142
 525    -2.414    18.885     8.403  214   -1  386  752
 526    33.645    22.206    19.200   -1  700  451  591
 527    47.533    32.801    21.608   -1  407  302  168
 528    34.846    42.361   -11.145   -1   22   24    7
 529    24.207    24.654    20.131   -1  649  401  520
 530    35.323     6.710    22.171   -1 1265  707 1061
 531    17.263    32.659     7.277   -1  305  162  270
 532    42.083    16.924     8.283   -1  756  487  762
 533    50.950    18.918    20.834   -1  802  544  666
 534    43.336     5.298    21.058   -1 1289  739 1122
 535    20.238    19.859   -26.845   -1  375  216  764
 536    17.682    22.082    31.351   -1  845  485  580
 537    33.455    40.482    -0.629   -1   76   50   24
 538    40.460    16.531   -10.325   -1  587  407  805
 539    64.086   -10.524    -2.697  814 1469   -1 1543
 540    41.923    16.559    25.603   -1  944  594  746
 541    42.228    30.759    -8.835   -1  222  158  376
 542    11.649    28.051   -11.834   -1  277  139  512
 543     3.932     5.661    11.076   -1 1207  617 1142
 544    48.246     1.486     5.291   -1 1231  717 1253
 545    53.699     8.184    -0.907   -1  899  609 1026
 546    53.286    12.964     8.078   -1  863  575  849
 547     5.718     9.238    16.098   -1 1139  583 1016
 548    34.818    32.039    18.366   -1  414  271  232
 549    35.397    16.736    21.190   -1  883  550  750
 550    40.228    11.229     8.180   -1  911  578  935
 551    23.811    -3.653   -25.358   -1 1047  601 1405
 552    53.151     6.951    -2.597   -1  937  611 1069
 553    58.127    27.757    30.421   -1  625  465  303
 554    28.868    26.915    -1.902   -1  382  243  496
 555    48.202    -0.885   -12.404   -1 1084  665 1339
 556    28.362     4.233     7.164   -1 1172  653 1185
 557    14.982    30.564   -13.930   -1  199   98  419
 558    26.464    37.420   -12.012   -1   69   48  162
 559    22.094    31.716    -1.226   -1  255  147  335
 560    44.412    20.385    28.168   -1  839  548  608
 561    25.415    40.602    -9.918   -1   45   32   70
 562    23.218    14.129   -11.543   -1  655  408  879
 563    27.315    39.738     9.582   -1  146   79   28
 564    43.352    38.739     9.471   -1  162  120   26
 565    -3.679    26.738    -3.782  112  387   -1  550
 566    28.825    -0.696    10.101   -1 1346  740 1322
 567    11.357    29.034    -5.409   -1  303  153  467
 568    27.633    -4.871     0.097   -1 1357  743 1426
 569    23.422    23.538   -10.634   -1  410  239  624
 570    35.262    25.953   -21.264   -1  244  169  565
 571    28.729    41.423   -11.714   -1   23   25   49
 572    51.383    -0.268    17.607   -1 1402  793 1283
 573    38.749    38.018   -11.039   -1   68   51  128
 574    19.776    20.334    11.333   -1  695  421  676
 575    27.894     2.115    19.886   -1 1372  752 1230
 576    25.172    28.494    -3.846   -1  342  187  461
 577    63.143    40.044    -4.941   -1   64   73   18
 578    49.499    39.713     4.248   -1  112   93    5
 579    17.155    33.717   -25.888   -1   70   41  363
 580    25.539    37.743   -22.657   -1   39   27  209
 581    62.288    24.942    20.475   -1  616  464  447
 582    26.228    -2.043    17.226   -1 1486  774 1364
 583    48.187    -0.683    -7.432   -1 1130  692 1321
 584     5.575    35.463    28.579   -1  404  208  127
 585    17.018    23.589   -12.865   -1  389  220  631
 586    35.350    33.908    -0.236   -1  213  133  226
 587    23.250    30.351    31.072   -1  582  358  260
 588    66.802    10.165   -21.551   -1  663  478  984
 589    30.537    -6.953     7.262   -1 1497  796 1476
 590    26.233     2.790    30.424   -1 1488  782 1202
 591    68.080    18.297    11.476   -1  706  539  687
 592    71.276    24.817   -13.915   -1  346  293  549
 593    38.867    38.424   -18.002   -1   47   36  132
 594    28.897     7.351   -15.318   -1  820  483 1107
 595    30.290    39.360   -12.121   -1   50   38   96
 596    65.281    35.643    -5.816   -1  131  132  146
 597    50.189    11.845    29.737   -1 1173  704  863
 598    21.673     9.096    -4.273   -1  866  501 1034
 599    29.833    33.947   -11.786   -1  143   80  273
 600    67.250    16.522   -25.946   -1  464  366  810
 601    15.436    15.404    21.982   -1  962  528  813
 602    62.853     6.314    17.788   -1 1209  746 1044
 603    39.845    -5.504     1.747   -1 1398  767 1453
 604    33.775    38.294   -20.894   -1   38   34  152
 605    63.984    11.845    16.807   -1  970  662  878
 606    67.150    40.949     0.384   16   73   87   -1
 607    13.645    13.907    15.408   -1  942  514  845
 608    24.071    40.025   -21.603   -1   17   15  124
 609    46.114    29.264     4.256   -1  374  259  385
 610    58.078    34.300    12.728   -1  301  242  126
 611    54.914    40.158    -9.223   -1   53   52   29
 612    24.450     1.504    27.403   -1 1490  775 1263
 613    24.080    40.210    -8.813   -1   49   35   79
 614     1.786    31.226    20.720   -1  471  236  286
 615     0.283     0.277    11.165   -1 1352  687 1318
 616    13.782    32.287   -15.862   -1  148   66  394
 617    49.948   -10.909   -10.613  810 1410   -1 1553
 618    59.768    -3.717    18.562  704 1506   -1 1379
 619    60.723    37.712    -1.357   -1  119  115   83
 620    15.830    28.418    -0.553   -1  361  203  458
 621    58.618    -9.637    -2.964  801 1438   -1 1535
 622    11.850     0.212    22.213   -1 1476  760 1301
 623    26.283    18.652    17.500   -1  810  474  699
 624    -5.308     7.676    -0.800  421   -1  498 1110
 625    -5.217    15.778    -2.537  272   -1  365  854
 626    70.819    13.199    -9.663   -1  688  496  873
 627    72.837    21.642    -1.498   -1  516  435  593
 628     0.346    32.187    -7.313   69  196   89   -1
 629    56.444   -11.806    -2.591  826 1507   -1 1574
 630    16.394     7.936    20.358   -1 1247  634 1033
 631    21.062     7.988    -2.535   -1  905  533 1058
 632    10.971   -14.798   -21.294   -1 1444  737 1619
 633    62.821    14.084    -5.207   -1  697  492  848
 634    -3.098    22.018   -20.319  186   -1  182  720
 635    40.989    21.312    -4.104  223   -1  355   -1
 636    41.413    23.252    15.607  182  635  434   -1
 637    55.659    15.490     8.428  318  788   -1  791
 638    28.018    33.817     5.274   58   -1  155   -1
 639    44.705    14.270    -1.733  337  726   -1  840
 640    38.250    10.193     4.817  402  912   -1  971
 641    29.942    40.073     2.107    4   99   -1   36
 642    44.748    28.384     8.803  123   -1   -1  393
 643    44.464    11.044     4.282  392  876   -1  939
 644    42.316    25.547     8.606  158   -1   -1  497
 645    34.657    15.422    12.968  301  851  519   -1
 646    24.593    22.529    -2.401  195   -1   -1  637
 647    29.555    30.472     1.714   91   -1   -1  367
 648    42.908    18.267    11.493  265  741   -1   -1
 649    43.176    33.571     4.494   -1   -1  179  217
 650    34.935     5.066     7.206  518 1135  652   -1
 651    38.728    40.566     4.699    3  103   69   -1
 652    40.267     5.929     1.012  504 1015   -1   -1
 653    40.157     5.228     3.750  523 1077  639   -1
 654    33.138    -1.713    13.093  643 1418   -1   -1
 655    33.192    -1.357    11.744  633   -1  761 1342
 656    19.846    25.836    15.649   -1   -1  343  499
 657    28.194    11.252    11.773   -1   -1  571  936
 658    21.118     0.634     3.751  585   -1   -1 1294
 659    56.075    10.795    20.310  396 1069   -1   -1
 660    20.171    10.122     7.744  381  963   -1  982
 661    47.983    13.194     0.870  355  787   -1   -1
 662    58.388     1.126     1.476  604 1182   -1 1257
 663    39.144    23.002    -0.173  198  500  341   -1
 664    48.080    23.222     1.024   -1  502   -1  584
 665    41.919    27.688     4.631   -1  415   -1  429
 666    42.207    34.416    -1.757   -1  191   -1  211
 667    37.446    31.437     7.485   -1  340   -1  279
 668    49.177    29.243     6.227   -1  386   -1  359
 669    53.416    31.351     2.840   -1  297  234  274
 670    26.729    27.128    -2.386   -1  376   -1  495
 671    54.841    29.259     8.982  115   -1   -1  329
 672    50.431    17.525    16.618   -1  809  538   -1
 673    19.288    25.803    17.647  131   -1   -1  494
 674    37.637    39.390   -13.311   26   -1   39   -1
 675    41.669     8.378     4.077  450   -1   -1 1021
 676    24.385    26.444    12.573  129   -1  324   -1
 677    28.155    20.759     7.231  212  637   -1   -1
 678    34.438    16.424     8.508  287  770   -1   -1
 679    19.740    17.517     0.890  262  677   -1  777
 680    28.245    24.525     7.721   -1  530   -1  551
 681    55.464    17.906     5.565  285  690   -1  723
 682    35.130    15.160     8.420  310  805   -1  819
 683    46.668    28.232     6.227  128   -1  295   -1
 684    43.118    13.684    -2.618  346  740   -1   -1
 685    20.945     1.798     6.902  569   -1   -1 1259
 686    55.227     3.847    13.364   -1 1238   -1 1169
 687    21.941    40.387     3.989   -1  102   54   -1
